 ;cllllllllllllllllllooooooooooooooooooodddddddddddoooo;...  .....:llllccccccccc:::::::::;,. 
 cxxxxxxxkkkkkkkkkkkkkkkkkkkkOOOOOOOOOOOOOOOOOOOOOOOkl;'.......,.';lxxxxxxdddddoooooooollll' 
 cddddddddxxxxxxxxxxxxxxxkkkkkkkkkkkkkOOOOOOOkkxxdddkd;.........,';coxxxxdddddooooooooooool, 
 cddddddddddddddxxxxxxxxxxkkkkkkkkkkkkkkkkxo:,'..'...........''''',cdxxxxxxdddddddddddddddd, 
 cddddddxxxxxxxxxxxxxxxxkkkkkkkkkkkkkOOOkd;''''...............'''',:xkkkxxxxxxxxxxxdddddddd; 
 cdxxxxxxxxxxxxxxxxxxxxkkkkkkkkkkkOOOOOOx,;::;;,'.................':kkkxxxxxxxxxxdddddddddd, 
 cdxxxxxxxxxxxxxxxxxxxxkkkkkkkkkkkkOOOOOOcclc;,''..........,,'......:xxxxxxxxdddddddddddddd, 
 cdxxxxxxxxxxxxxxxxxxxxkkkkkkkkkkkkkkkkOkxc::;,'..........',,'.......oxxxdddddddddooooooooo, 
 cddddddxddddddddddxxxxxxxxxxxxxxxd:;co:'...''''...........''........,oddoooooollllllllllll' 
 ;lllllllccccccccccclllllllllloooo;,...... ...........................;cccccccccccccccc::::. 
 ,::::::cccc:::cccccclllllllllllllcc... ..    .     ....  ............,:::::::::::::::::::;. 
 ,::::cccccc::::::::cccclllllllcll:c.':'........',;:'.. ..............;c;,,,,,,,,,,,,,,;;;;. 
 ,:::::::;;;;;,,,,,;;;:::::::::::;,''.:lccccccccllloc. .....  .....  .,:;,'''''''''''''''''. 
 ';;:::;:;;;,,,,,,,,;;::;:,;::::c,'''.cdoooooooooollc.............   ..;'''''''.....'''''''. 
 .',,;;;:;,,,,''''''.'',,,,,,:c:c,.''.dxdddoolllllcc:.       ....     .,;'''.'''.'.......... 
 .',';;,,'';;c:,,,''...''';,'''.......olcoddddddddddd:.       ...      .:;','',,,,'',''''''. 
 .'',,:,''.,;:;,;;'.''...'','''.......c:;c;;;:cllclool'               ..l;.''''''..';;;;,',. 
 ','''..',,'','....',,'..;;.         .....:kk:,,,;::c:l.              ..:c,,;:;:::,,c::::::. 
 .;,..'....'',',';,col:'.'.    ............ckd;;,;lccld'                ,c;,;lc:cc;;oooddoo, 
 .''',,;cc'.'.'.'lolococ.   ..... ..........lko;;:;,:ld;.               'dl'',;:c;::::;;:::. 
 ''';occ;;,cd,'''oxxxco;. ...................cod:::::;;.                ;kd,',;:c;cddolc;;;. 
 ,;;:c;,,;;ol:;;:oxxxc..........................;,:c::;.  .          ..cokxc;;,,''clll:c;'c' 
 ,c;;;,,;,,:c;'':okkx,....................... ..  .,:,;'            ...,okkd'',,'.,;'c;;;::' 
 .;,,:;,,:oolc,.:dkd'...''....'.''............      .',;            ....xkkx,''...;c,c:..;;. 
 ......';cxxxd:,cdo'...,'......'.'......     .. .    .........    .';.;:odxd;';,..',;,'..';. 
 ;,'',;::lxxxlloxl'..';,'',' ....''........  ...      .''....    'odc...,llo:.';;;,',,...':. 
 ,,..,;::;;:cllxl,'',;;',:::;,''''''''............     .;....    .lxc....;cc::cccl:,,c'..,,. 
 ':;,;'.';;;::;c;;,;::,,::::::;;,,',,,''...........,cll.':.... ...'dl....,cl,,cccc,..,;.'..  
 ';:cc;.';:c,':::;:cc;':ccccc::;,'''','.............,cox,.'........oo....,cc'.::;;.  .'','.. 
 .;lc:;;;;c,;cc:::clc;,:ccc:::::c;,,;;;,'............;:oOl....... 'd:....,cc;....:'  ..'.... 
 .''','.':;:c::::ccc;';::::::::cc:ollc:,'''..''..... ....        .l:.....,ccl;.  ;c.  .. ..  
 ...',''...',,;;:c:;',:::;::lxkxkxddool,,,,''''.'...            .:c,.....,cldo   'c'.......  
 .....''..':lodxxxdoddodddddddddolcllcc;,,,,,,'.......... ........;:;....;lldl.....'''.....  
 '....',.'';loxkOOOO0000Okkdol:;'',,,'.,,,;;;:;,'''''.............;:,';:;:lodxl....... .';:  
 ...,''...'',:lodkkkkkkxxddlc;'..................'''''''..........,:,..cc:ccoo:,cc:......:d. 
