 .''''',,,,,,,,;;;;;::::ccclllllllllllllllllc:;::cccccccccccccccccccccc::c:::::::::;;,,,,,,. 
 ';;;;::::ccccccllllooodddxxxxxkkkkkkxxxxxxxxdoxxxxxxxxxxxxxxxxxxdddddddddddooooolllcc:::::. 
 ';:::::ccccllllloooooodddxxxxkkkkkkkxxkxxxl;ldxxxxxxxxxxxxxxxxxxxdddddddddddoooooolccccccc' 
 lxkkkkkkkxkkOkkkkkkkkkkkkkkkkkkkkkxxxxxxxdc,ldddddddddddddddddddddddodddddddo,lddddxxxddxd; 
 lxxxxxxklxOOOkkkkkxkkkkkkkkkkkxxxxxdddddoooc:clllllllllllllllooollllclllollll:.cllllllllll, 
 :oolc:;c,ddolccoooollcccooolccc:::ccc:::;;;cc::;;,''';:::::;;;:c::;;,,,,;;,,'. .,;,,,,'',;. 
 ;c:;,...'lc;,.'cccc::;,'clcc::;,..;::;:;;,'cc::;;,'..::::;;;,,,:;;,,''..,,'... .,'..... ... 
 ',,,,''.,;;;,,;;;;;;;;;;;;;;;;;,,,,,;;;,,,,,,,,,''''',,,,'''',,,'''''.....................  
 ......';;;,.;:,':lllloooooooooooooodddddc;,;llloolc::c:;oooollc::lllll;..::.;:c:;'........  
 .,;:::ccccc.:l:,::oooddddddxxxxxxxxxxkkkxll::oddollcc:c:cdddll'.',;:c::c;o:'lllccc;,'.....  
 '::::cccccl;,ll;ol::oddddddxxxxxxxxxxxxxddooccoolcccc:::;ooooo;'.',.,lo;:c.:llllllc:;;;;;,. 
 ;ooddddddddo.cdclddollxxxxxxxxxxxxxxxolcclodolldollllccc;:cccc:;'',cloo;o:'oooooolllllccc:. 
 .,,,,;;;::::'.c::ooddocoxxxxxxxxxxxxxc:;;;clollooollllololllllc,,cllllc;c',;;,,,,,''......  
 ';;::::::ccc:.,c'lllllolcldxxxxxdddxo:;,,;:olcccllllccc:::::c:::clllll;c;.cc:;;;;;;;,.....  
 ';;::::::cccc,;l;:oooooddollxxddddxxd:;,,::ccclolllooooddxxocoddddoooo,o.;llc:;,,,;;,'....  
 ,:::::::ccccl;'cc;oooooodddoloddxddddo::;:ll:oxxxooodddxxdlodxxdddooo:;:.lllc:;,,,;;,,'.... 
 ;clllc::cccccc';l;looooodddxdc::llc:cc::;:lllollddlloool;odddxxdddooo,c.,llc:;;;,;;;;,,,,'. 
 ;cccllc:cccccl,',;:oooooddddc,..,;;cc;,,,;;:ccc::::cc:;,.'::cxxddoool;;.cllc;,,,,,,;;,,'''. 
 ;cccllc:ccccccc,.:,loooooo;.......';,'''''',lccc::::;;,...'.''cooooo::..lccc:,''',,,,,,'''. 
 ,c:;:cc:::ccccc,''';loool,..........';;;;;,;c;cllc:clc,.... ..'loooo;;.:ccccc;'''''',,'.... 
 ,cc:;:cc:::cccc;;.,'lllc:..'''...'. .',,,,'''''..',,,,..,.,c. .;oool;.'c:;;:c:;''''''''...  
 ,:c::cllc:::ccc:,;..;cl,,,'...       ....... .............':c..clcl:'.c:;;;;:::,''........  
 ';ccccllc::::c::'...':;.,. ..  .....       ........... ...'..  ,;c:'''c;;;;;;::;'.........  
 .,:cccccc::::::::.;..;;'  ..',,;;;;;,,;;::ccclllllc:;:c:'...   ';oc..::;;;;;;;;;,'........  
 .';;:ccc:::::::::,:,.';.'...';::ccc:::cccllooooddddddddddooo;;',co;.,c:;;;,,,'',;,'.......  
 ..',:ccc:::::::::;.;..';,,;::,''.'',;;::llooddddddxxxxxxxxxxxxd;::.';:;;;;;,,,,,'',,,'....  
 ..';::ccc;,,,,,,''..'.;cc;.. ..';clcc:;,''....';c::codxxxkkxxkkxxo,':;;,,,'.','''.',,,....  
 ..,;;::;;.        .':c;.. .';:;;,'. ..          . .....';ldxxxkkkxxd:''.....,:::::',,'....  
 .',;;::,.        ,cc,. .;lcc'  ..    .   .      .       ....;ldxkkkkxo:,''''',;,,:,'''....  
 .,,;;;.        ,ol'..,c:... .        '.....    '        ...   .,ldxkkkxl;,,,,,,;;,'.''....  
 .,,,'        .lo,..;:'       ..      ,l,  .   .l      ',.        .:oxkkkd:;,;;;;,;,......   
 .,'',;'.    .dl..,c.          ;:      .       ..     ..            .cdxkkxolooodddo....     
 .''.',,'.  .o;.,l;..           .       ..',,,,,'..                   .lxkkx:'''..'..        
 ........  .c..;l.    .        .,::;...',,,;::::cclcccccc:,.      ,.   .;oxkd.               
  ........ '' ,c.             .'',:;''',,,,;;;,,;;;,,,;;;:cc;     '.     ;ldd,.              
