 ;cllllllllllllllllooooooooooooooooooooooooooooooooooooc;..;...,lllllllcccccc::::::::::::;;. 
 cxxxkxxkkkkkkkkkkkkkkkkkkkkOOOOOOOOOOOOOOOOOOOOOOOOOx;'......'',;coxxxxxdddddddoooooooolll' 
 cddddxxxxxxxxxxxxxxxxxkkkkkkkkkkkkkkkkOkkkkkkkkOOOOxo;'.....',,''..'odddddddddoooooooooooo, 
 cddddddxxxxxxxxxxxxxxxxxkkkkkkkkkkkkkkkkkkkkkdc;,,'.......'',,'.....;xxxxxdddddddddddddddd, 
 cddddxxxxxxxxxxxxxxxxkkkkkkkkkkkkkkOOOOOOkd:.......  .......''.'''..:xxxxxxxxxxxxddddddddd; 
 cxxxxxxxxxxxxxxxxxxxkkkkkkkkkkkkkOOOOOOOk:',,'.....    .  .......'';lxxxxxxxxxdddddddddddd, 
 cxxxxxxxxxxxxxxxxxxxxkkkkkkkkkkkkOOOOOOO:;:,'.......................lxxxxxxxdddddddddddddd, 
 cdxxxxxxxxxxxxxxxxxxxkkkkkkkkkkkkkkOOOkx;:;'..........''.''.........:dddddddddddoooooooooo, 
 cddxxxxxddddddxxxxxxxxxxxxxxxxxxxxc:loc..','...........',,;,'.......,lddoooooollllllllllll' 
 ;lllllllllllllllllllllllloooooooo;'......................',,,'.......'ccccccccccccccccc:::. 
 ,:cccccccccccccccccllllllllollllccc......   .........................';::::::::::::::::::;. 
 ,:olcccccccccccccccclllllllllllllcc';l;.....';;:clc;...   ...........':;;,,,,,,,,,,,,;:;;;. 
 ,:ccc:::;;;;;;;;;;;;::::::::::::;,''.clllllcccccllol'.. .............'l;,,''''''''''''''''. 
 ';::::;;;;;,,,,,,;;;:c:::;;::::c,'''.cdooollllllllll'....... ........';;'''''''.....''''''. 
 .',;:;;:;;,,,,''.'''',;,,,,;:ccc,....dxdooollcccccc:,..   ............;:,'''''''''......... 
 .';':;,,'';;c:,,,,,'.'',,;,'''....'',olcoooooddddoooc.      ....      .;;',',,,,,'',''''''. 
 .',,,:,''',;c;,;;''',...'','''....'':o:;c;,;::llclool;        ...  . ..c:''''''''.';;;;,,,. 
 ','''''',,'',''...,,,'..,;.   .........',okx:,',,;:cco.           .....:l;;;c;:::,,::::::;. 
 .;;..''..''',',';,col:'.'.  ..........',,;oOd;;,;cccld,.              .,l;;;lcccl;;oooddoo, 
 .',',,;cc'.'.'''lolococ.   .'........',,,',dOl;;:;,:ld:...             'oo,',::c;:c::;;:::. 
 ,',:occ:;,cd,'',oxxxlo:. ............',,,,',dxd;::::;;.  .    ...    ..,kd'',;:c;cddolc;;;. 
 ,;;cl;,,;;ol:,;:oxxxc'....''.........'',,''..';:;:c:;;'  .       ....'cokxc;:;,,,clll:c,'c' 
 ,l:;;,,;,,cl;',cdkkx,...''..........'..........  .,:,,'      .......'.;okkd'';,'';;'c;;;:c' 
 .;,;:;,;:oolc'.:dkd'...'''...''''...............   .',;.   ............xkkx,',..':c,l:..::' 
 .'....':cxxxx:,cdo'...,,'.....'.,.........  .....   .... ..........,.;:dxxd;';,.'',:;'..';. 
 ,,',,;::lxxxlloxl'..';,'',' ....''......... .,'..   .,''........'ld:...,clo:.';,;,',,...':. 
 ;,..;::c;;ccllxl,'',;;,,:::;,'',,''''''';;;;,,;'..   .:c.........ldc....;cc::cccl:;,c'..,;. 
 ':;,;'.,:;:c::c;;;;::,,:cc::::;;,,,,;,,',;;;;;;;..;coc,lc........,dl....;cl,,cccc,..,;''..  
 '::cc;'';cc,,:::::cl:,:ccccc::;;'',,,,,'';::;;;:,.'ccod,c;.'.....'oo....,cc'.c::;.  .,,,'.. 
 .:lc::;;;l;;cc:::clc;,cclc:::::c;;;;:;,,,;:cccccc,'':cdOo;.......,d:....,cc;....:'  .',.... 
 .',','.,:;:c::::ccc:,;:::::::ccccllcc:;,;;:clllllc'......    ....oc.....,ccl,.  :c. ...  .  
 ...','....,,,;;:cc;',::::::lxkkkkxoodo;,;c;loooolo,    .      ..:l,.....,lldl. .'c'.......  
 .....,,..':lodxxddodooododddxxdoolllcc:;;;;:::::::;;;;,. ...',,'.;c;'...;lldl.....'''.....  
 '....',.'';ldxkOOOO0000Okkdoc:;,,,,,'.,,;:::loooddoolll:::::::;'.;:,';:::oodxl....'.. ''::  
 ...;''...',;cloxkkkkkkkxddlc;''..........''';::cloooodolc;,;,;c'.;:,.'ccclcoo:;cc:'.'...:d. 
