 ;cllllllllllllllllooooooooooooooooooooooooooooooooooool:..;...:lllllllcccccc::::::::::::;;. 
 cxxxkxxkkkkkkkkkkkkkkkkkkkkOOOOOOOOOOOOOOOOOOOOOOOOOo;........,:ldkkxxxxdddddddoooooooolll' 
 cdddddddxxxxxxxxxxxxxxkkkkkkkkkkkkkkkkkkkkkkkkkkkkko,........'....,ldxddddddddooooooooooll, 
 cddddddddddddxxxxxxxxxxxkkkkkkkkkkkkkkkkkkoc,'...''.................oxxxxddddddddddddddooo, 
 cddddxxxxxxxxxxxxxxxxxkkkkkkkkkkkkkkkkkkkc;;,......    ..........'.'lxxxxxxxxxxxdxxxdddddd; 
 cxxxxxxxxxxxxxxxxxxxkkkkkkkkkkkkkOOOOOkOl;:;'......................:dxxxxxxxxxxxdddddddddd, 
 cxxxxxxxxxxxxxxxxxxxxkkkkkkkkkkkkkOOOOOOx::;,.......................lxxxxxxddddddddddddddd, 
 cdxxxxxxxxxxxxxxxxxxxkkkkkkkkkkkkkkOOkkxdo;,,''...........''........;dddddddddddoooooooooo, 
 cddxxxxxddddddxxxxxxxxxxxxxxxxxxxxc:lo,........'.....................:oooooooollllllllllll' 
 ;lllllllllllllllllllllllllooooooo;'......  .............   ..........':ccccccccccccccc::::. 
 ;::::ccccccccccccccclllllllollllccc......           ...    ..........';;:::::::::::::::::;. 
 ;:::cccccccccccccccclllllllllllll:c.,:'........',;;,.   ..   ........':;;,,,,,,,,,,,,;;;;;. 
 ,:ccc:::;;;;;;,;;;;;::::::::::::;,''.:lllllcccccllll. ..'... .........c;,''','''''''''''''. 
 ';;:::;;;;;,,,,,,;;;:c:::;;:::::,'''.cdooollllllllll'.... ............;,'''''''....'''''''. 
 .',;;;;:;;,,,,''.'''',,,,,,;:lcc,',,'dddooollclcccc:,.     .......  ..,;,'..'''..'......... 
 .';':;,,'';;c:,,,,,'''',,;,'''....'';dccooooddoodoooc.        ... .  .':;','',,,,'',''''''. 
 .'',,:,''.,::;,;;''',...'','''...''':o:;c;,;::llcllll'         .  .....c;''''''''.';;;;,,,. 
 ','''''',,'','....,,,'..;;.   .........',okx:,,,,;:ccl.            ....:l;;;:;;::,,:::;;:;. 
 .;;..''..''';',';,col:'.'.  ..........',,;oOd,;,;ccccd'.              .;l;,;lccll;;oooddoo, 
 .',',,;cc'.'.'''lolococ.   ..........',,,''dOl;;:;,:ld;..             .,dl,',;:c;:c:::;::c' 
 ,',:lcc:;;cd,'''oxxxco:. ............',,,,''dxd;:;::;;.  .    ..     ..;kd'',;:c;codolc:;;. 
 ,;;cl;,;;;ol:,;:oxxxc'....''.........'',,''..';:,:c:;,'  .       ....'cokxc::;,,'llll:c,'c' 
 ,c;;;,,;,,:c;'':okkx,...............'..........  .,:,;'     ........'.;okkd,';,'';;'c:;;:c' 
 .;,,:;,,:oolc,.:dxd'...'''...''''...............   .',,    ............xkkx,',..';c,l:.'::' 
 .'....';cxxxx:,cdo'...,,'.....'.'.........  .....   '..............,.;:oxxd;';,.'',:;'..';. 
 ,,',,;::lxxxlloxl'..';,'','  ...''......... .,'..   .,'.........'ld:...,clo:..;,,,',,...';. 
 ,,..;::c;;clllxl,'',;;,,:::;,'',,''''''';;;;,,;'..   .::.........ldc....;cc::cccl:;,c'..,;. 
 ';;,;'.,:;;c::c;;;;::,,ccc:::;;;,,,,;,;',;;;;;;;..;col,lc........,dl....;cl,,clcc,..;;',..  
 ';:cc;'';cc,,:::::cl:,:cccccc:;,',,,,,,'';::;;;:;.':cld,c;.'.....'oo....,cc'.:::;.  .,,,'.. 
 .:lc::;;;l,;cc:::clc;,cclc:::::c;;;;;;,,,;:cccccc,'':cdOo;.......,d:....,cc;....:'  .',.... 
 .',','.,:;:c::::ccc:,;::::::::cc:ll:c:,,;;:clllllc'..'... .  ....lc.....,cll,.  :c. ...  .  
 ...','....,,,;;:cc;',::::::lxkxxxooool;,;c:loooooo,    .      ..:c,.....,lldo.  ,c'.......  
 .....,,..':lodxxddodooodooddxxdoollllc:;;;;::::::;;;;;,. ....,,'.;:;'...;lldl.....'''.....  
 '....',.'';loxkOOOO0000Okkdoc:;,,,,,'.,,;:::loooddoolll:::::::;'.;:,';:;:lodxc....'.. .,::  
 ...,''...',;:loxkkkkkkkxddlc;''..........''';::clooodoolc;,,,:c'.,:,.'ccclloo:,cc:......:d. 
