 .'''''',,,,,,,;;;;;;;:::cccllllllllllllllllc;;;::cccccccccc::::::::::::::::::::;;;;;,,,,,,. 
 ';;;;;::::ccccclllllloodddxxxkkkkkkkxxxxxxxxdldddddddddddddddooooooooooooooooollllllcccc::. 
 ';::::::ccclllllooooodddddxxxkkkxxxxxxkxxxc,codddddddddddddddddddddddooooooolooooolllllllc' 
 lxkkkkkkkxkOOOOkOkkkkkkkkkkkkkkkkkxxxxxxxd:'ldddddddddddddddddddddddloddddodo,cddddddddddd; 
 lxxxxxxxlxOOOkkkkkxkkkkkkkkkkkxxxxxxdddooooc:cllllllllllllllllllllcc:ccllllll;.:ccccccllll' 
 :oolc:;:,odolc:oooollcccloolcc::;;cc::;;;;;cc::;,,'.';;:::;;;,;:;;,,,''',,''.. .,,,''''.,,. 
 ;c:;,...'lc;,.'cccc::;,'clc:::;,..,::;:;;,':c::;;,,..:::;;;,,'';;,,''...','... .''..... ... 
 ',,,,''.,;,;,,;;;;;;;;;;;;;;;;;,,,,,,,,,,,,,,,,'''''',''''''''''''........................  
 ...'..';;;,.;:,':llllooooooddddddoodddddc;,;llloolc:ccc;oooollc::colll;..c:.;cc:;'',..''..  
 .,:::cccccc.:lc'::oodddddxxxxxxxkkkkkkkkxll::lodolc:::lccdddll,',;;:c::c;o:'llllllcc:;,''.. 
 '::::cccccl;,lo;ol:coddddxxxxxxxxxxxxxxxddooc:oolcccccclcooooo;,',,.,lo;:c.:llllllllc::;,,. 
 ;ooddddddddo.cdclddollxxxxxxxxxxxxxxxoc:;:looccollllllllcccccc:;',,cooo;o:'oooolllllccc:::. 
 .'',,,;;;:::..c::ooddocoxxxxxdddxxxkxc;'',:cocclolllllololloooc,;lllll:;:.,;,,'',''''.....  
 ';;::::::ccc:.,c'lllllolclddooxxkkxxo:,'',;olcccclllcllcccccl:::clclll,c;.cccccc:::;;;;'..  
 ';;::::::cccc,;l;:looooodooddxxxxkxxd:,,,;;ccllllloooooddxdlcoddddoooo;l.;ccccc:;;;;;;;,..  
 ';;::::::cccc;':c;loooooddddodxddxdddl::;cllcdddooooddddxolodxxdddooo:::.cccccc:;,,,,,,,'.  
 ';;:::::cccccc',l;cooooodddxxl::lcc:ccc::cllooddoooooooo:odddxxdddooo;c.,lccccc:;,,,,,,,'.  
 ';;:::::::cccc,.,;;oooooddddl;.',;;cc:;;::ccllloooooolcc;:oooxxdddool:;.cllcccc::,,''',,,.  
 ';;;:::::::::c:'.;'llloooo:'......,::;;;;;:cllllooolll:;,,:clloddooocc..lcccccc::;,'.''','. 
 ,:;;;;;;::::::c'...,llllc,.......'.';ccc:::clllloollll:,;,,,,:looooo:;.:ccccccc::;,'..''''. 
 ';:::;;;:::::::;,.'.:clc:..'.....,..';:::::::::::cccll::c:cl;':loooo:.'lcccccc::;;,'...'''. 
 ';::::::::::::::,;..,cc,',....   ....,,,,;;;,,,;;:ccllcccclll,,ooooc,.cccccccc::;,,'....''. 
 ':::::::cc::::::'....:,.,. .. ............',,,;;::cloooolllcc,'ccll;,,lcccc:::::;,,'.....'. 
 ':ccccccccc::::::.;..;;.  ..',,;;;,;,,;::ccllooddddddxxxdol:;;.;col,.:ccccc:::;;;;'........ 
 ';:ccccccclc:::::':,..;.'...';::::::;;;::clloodddxxxkkkkxxxdcc:;lo;.,lccc:::;;;;;;,........ 
 .,;::ccc:cclc::::;.;..';'';:;,'....,,,;:clloodddxxxkkkkkkkxxxxdc::.';c::::;;;;,,,,,'......  
 .,,;::cc:;,;,,,,''..'.;cc;.. ..';cccc:;,''...';:looodxxxxxkxxkkxdl,'c;;,,,,,,,''',,,'.....  
 ..'',;::,.        ..:c;.  .';;;;,'. ..         .,'',,,,,codxxxkkkxxd:'......,;;;;;'''.....  
  ....;c'.        ,cc,. .;ccc'  ..    .   .     ............';ldxkkkkxo:,''''',;',;'......   
  ....'.        'll'..,c;... .        '.....    '.      .....  .,ldxkkkxl;,'',,,,,,........  
   ...        .lo,..;:'       ..      ,l'  .   .l      ,,.        .:oxkkkdc;,,;;;,;,.......  
    .','.    .dl..,c.          ;:      .       ..      .            .cdxkkxolooooddl.......  
    ..''..  .o;.'l;..                   ..',,,,,'..                   .cdkkx:'.............  
     ...   .c..;l.    .        .,:::...',,,,;::::ccc::ccc:,.      ,.    ;oxkd.               
      ...  '' ,c.             ..',:;'''',,,,;;,,;;;'',,;;:cc;     '.     ,ldd,.              
