 ;llllllllllllllllllooooooooooooooooooooooooooooooooooooooolllllllllllccccccccc::c::::::::;. 
 cxkkkkkkkkkkkkkkkkkkkkOOOOOOOOOOOOO000000OOOOOOOOOOOOOOOOkkkkkkkkkxxxxxxxdddddddoooooollll' 
 cdddxxxxxxxxxxxxxxxxxkkkkkkkkkOOOOOOOOOOOOOOOOOOOOOOOkkkkkkkkkkkxxxxxxxxddddddddddoooooooo, 
 cdddddddddxxxxxxxxxxxxkkkkkkkkkOOOOOOOOOOOOOOOOOOOOOOkkkkOOOOkkkkkkkxxxxxxxxxxdddddddddddd, 
 cdddddxxxxxxxxxxxxxxkkkkkkkkkkOOOOOOOOOOOOOOOOOOOOOOOOOOOOOkkkkkkkkkkkkkkxxxxxxxxxxxxxxddd; 
 cdxxxxxxxxxxxxxxxxxkkkkkkkkOOOOOOOOOOOOOOOO00OOOOOOOOOOOOOOOOkkkkkkkkkkkxxxxxxxxxxxxxxdddd; 
 cdxxxxxxxxxxxxxxxxxxxkkkkkkkOOOOOOOkxxxxxxxxxxxxxkkkkkkkkkkkkkkkkkkxdxxxxxxxxxxddddddddddd, 
 cdxxxxxxxxxxxxxxxxxxkkkkkkkkkkkOOOOkdoollcc;;;;cldxxxxxdddddooooooo:looooodddddooooooooooo, 
 cddxxxxxdddddddxxxxxxxxxxxxxxxxo;,'...............';:ccllllllcccccc::cc:;;:::;;;,,,,,;;;;;. 
 ;lllllllllllllllllllllloooooooo,.........................;::::;;;';;;'.....''.............  
 ,:::ccccccccccccccclllooooooooc..........................';ccccc:;,;;,.. .''..,:::;;;;:::;. 
 ,:::ccccccccccccccclllllloolllc'............. .... .......'ccc::::;;;,''..'...,,,,;,,,;;;,. 
 ,:ccc::;;;;;;;;;;;;::::c::::::c'......................    .ccc:;coc;::::;,,'.''''',,'''.... 
 ';;:::;:;;;,,,,,,;;;:c:::;::::;............. ..............'c;,,:c;,''',,',;............... 
 .',;;;;:;,,,,','''''',;,,,;;ccc:. ..... ...  ......         .,,;lc;.   .',;;. ............. 
 .';';;,,'';;c:,,,,,'''',,;,,,'''.   .. .,..      ..          .,;l:,.  .;;;,,  .....'''''''. 
 .',,,:'''';::;,;;''','..',,,,''.........''....................;lll:....''''.  .....,,'''''. 
 ','''.'',,'',''...,,,''.;;.  ..          .:.  .   .............,',............'''.........  
 .;,......''',',';,col:'.'.       ..............     ....      ..',..,..,,,.',;ccl;;ooooool, 
 .',',,;cc'.'.'''lolococ.  .... .....''.........               ...,'.',cdkl'..';:,;:::;;:::. 
 ,'':lcc;;;cd,'''oxxkco;. ...................            ...  ....',;,,ldOo'',,,;''cdolc;;:. 
 ,,;cl;,;;;ol:;;:oxkkc'............... .....        .      .    ':;,;,'ookkc;:,'.  'cl:c,'c' 
 ,c;;;,,;,,:c;'':okkx,................  ...'      ...          .:,,,...,okkd'';,'. ''c;;;:c' 
 .;,,:;,,:ooll,.:dkd'...'........'....  .....    ..           .,,;;,....xkOd,',....',l;..;:. 
 ......';cxxxx:,cdo'..','......'.'....  ..........           ..,,co;,.;;odxd;,;,''',:;'..';. 
 ;,',,;::lxxxlloxl'..,;,.','  ...'.... ..........            .':cddd;...,clo:.';;;,',,...':. 
 ,,..,;:c;;ccllxl,,';;;',:::;,''','........    .  .:;,....   ..'oddd:....;cc::ccll:;,c'..,,. 
 ';;,;,.,;;:::;c;;;;::,,:cc:::;;,''........    ....;cl;.    ....,cddc....,cl,,llcc,..,;',..  
 ';:cc;'';cc,,:::;:cl;':cccccc;,,''...,'......,::;..;:oc.    ....'odl....,cc'.::;;.  .,','.. 
 .:lc::;;;c;;cc:::cl;,.:cc:;:::cc;;::::;,'.;lollcc;'.::ox;.    ...ld;....,cc:....:'  .',.... 
 .',','.':;::::::ccc;',;;;;;;;:cllloolc;;:ccoddoool;.':,,.      .,o:.....,cll;.  :c. ... ..  
 ...','...',,,;::cc;',:::::cldxkkxddddo;;:lcoddddooc.           .,:'.....,cldl...,c'.......  
 .....',..':loxxxddoddodddxxxxxxdllooll:::::ccc::::;;;;,,.  ..',..,;,....;lldl.....'''.....  
 '....',.'';loxkO0OO0000OOkxdlc:,;;;;,';;;:ccooddddoollc:,;,;;;,..,;'.,;;:lodxl...''.. ',::. 
 ...,''...'';:loxkkkkkkkxxdoc;,'.......''',,,:ccclooooolcc,',';:..,;'..cccccod:;cc:'.....:d. 
