 ;clllllllllllllllllloooooooooooooooooooooooodddoooooooooooooollllc:,;;::ccccccccc::::::::;. 
 cxxxkkkkkkkkkkkkkkkkkkkkkOOOOOOOOOOOOOOOOOOOo;,:xOOOOOOOOOOOOkkkxoclloooooddddddooooooolll' 
 cddddddddddxxxxxxxxxxxxxkkkkkkkkkkOOOOOOOxc,......,cdxkOOkOOOkkxlcloddodddo::loooooooooooo, 
 cddddddddddddddxxxxxxxxxxkkkkkkkkkkOOOxlx,....  .....,:lloxkOxddcoxxxxxddo..;ooolloddddddd, 
 cdddddddxxxxxxxxxxxxxxxkkkkkkkkkkkOOd;,.......     ....;oolclollllloxxxdl..'dddxc:lloodddd; 
 cdxxxxxxxxxxxxxxxxxxxxkkkkkkkkkOOOkl:;''.......          .;lxdlccodl:;;c....ccc,.',.;ool:c' 
 cdxxxxxxxxxxxxxxxxxxxxkkkkkkkkkkkOOkc,,'.......            ..cxkdc;,:c;. ...'''...  .,...;. 
 cdxxxxxxxxxxxxxxxxxxxxkkkkkkkkkkkOOOOx:',,'...                .,dxxo:'.    ..',,,,''.  'cl' 
 cdddddddddddddddddddxxxxxxxxxxxxkxc:oxko:;,...      .           .:oddo;,.  .......',.  .:c' 
 ;llllcccccccccccccccllllllllooooo:'..... .'.....                ..;lllccc;'......''.   .,;. 
 ,::::::::::::::ccccclllllllllllc,..    ....'....                .':::;..,',''...,;'   .',,. 
 ,::::ccc::c::c:::ccccccllllllc,. ...........'...               .';c:;....'',,,,,,,.''',;;,. 
 ,:::::;;;;;;;,,,,,,;:::::::::,    ......... .''.              ...'::;,;;,'',,''','.'''''..  
 ';;:::;;;;,,',',,,,;;::;:,;;;;.    .........,:;...            ...';:,,',''''''...'...''''.. 
 .',,;;;;;,,,'''''''.'',,,,,,:c:,. ...;:lodooollc'..          ......,;,,,,''''''''..  ...... 
 .',';,,,'',,::,,'''...''',,'''.......llloddxddddd.           ..    .;;,:;',,',,,'. ..'''''. 
 .'',,:,'..,;:;,;;'..'....','''...... :c;c;;;cclll,                 .:l.:;'',''''..';;;;,',. 
 ','''..',,'','....',,...,,.     .   .....:kkc,,,;:.               ..,:.cl;;;c::::,,::::::;. 
 .;,.......'',',.,,col:'.'.     .... ....',lOd;;,;lc.                .c;cc:;;lc:cl;;oodddoo, 
 .'''',;c:'.'....coloclc.         ..   ....'ldl;::;;'                .;coOo,',::c;:c:::;:::. 
 ,'';lcc;,,:d,'''oxxxcl:. ..........    ......,l;::::.              ..,coOd,',;:c;cdddlc:;:. 
 ,,;cc;',,,ol:,,;oxxxc..............       . .  .'cc:,  .          .''.lokkl;;,,,'llll:c;.c' 
 ,c;;,,,;,':c;'':okkx,..............               ':,            .'...,lkkx,',,'.,;'c:;;:c' 
 .,',;,',:oocc'.:dxd,...'...........                .'.         ...,'...dkkx,',..':c,l:..;;. 
 ......';cxxxd:,:do'...,'........'..                 .......    ..c:,.;;odxd;,;,.'',:,,..';. 
 ,,.',,::cxxxlloxl'..';,.','  ...'....               .,.....   .,odd;...'clo:..;;;,',,...';. 
 ,,..,;::,;ccclxl,'',;;'':::;,'..'.....  ...       .. .:,...    .cdd:....,cc::cccl:;,c'..,,. 
 ';;';'.';;;::;c;;;;::,,::c::;;,''............     :llc,c'...    .ldc....,cc,,cccc,..,;',..  
 ';::c;.';:c,':::;:cc;':cccc::;,,'.........''...   .;cdk::'....  .;dl....,cc'.::;;.  .'','.. 
 .;lc:;;;;c,,cc:::cc:,.;cc:;;;:::,,;::;,...',;,..   .;:dOo;....   ;d;....,cc: ...:'  ..,.... 
 .''','.':;;:::::cc:'.',;;;;;;;:c:lolc:;'...,;:;'.   ....        'o:.....,ccl,.  :c.  .. ..  
 ...'''....',,,;:c:'..,;,,,;cdxxxxdoooo,'...,;:::..             .;:'.....,cldo.. 'c'.......  
 .....',...;codddoolllloooodddddollccc:'...........'...        ...,;;....,llol.....'''.....  
 '....',.'';coxkOOOO0000Okxxoc;,''.......      ..,::;'.       .'..,;'.,;;:lodxl....'.. .,::  
 ...,''...'';cloxkkkkkkkxddlc;'....... .       ..,:c;.         ...,;'..:c:ccoo:;cc:......:d. 
