 ;cccllllllllllllllllllllllllloooooooooooooooooooooolllllllllllllccccccccc::::::::::::;;;;,. 
 cdxxxxxxxxxkkkkkkkkkkkkkkkkkkkkkkOOOOOOOOOOOOOOOOOkkkkkkkkkkkkkxxxxxxdddddddoooooooolllllc' 
 coddddddddddddxxxxxxxxxxkkkkkkkkkkkOOOOOOOOOOOOOOkkkkkkkkkkkkkkxxxxxxddddddddodooooooooool, 
 coddddddddddddddxxxxxxxxxxkkkkkkkkOOOOOOOOOOOOOOOkkkkkkkkkkkkkkkkkxxxxxxxxdddddddddddddddd, 
 :ddddddddxxxxxxxxxxxxxxkkkkkkkkkkOOOOOOOOOOOOOOOOOOOOkkkkkkkkkkkkkkkxxxxxxxxxxxxxxxddddddd; 
 cddxxxxxxxxxxxxxxxxxxxkkkkkkkkkkOOOOOOOOOOOOOOOOOOOOOOOOOOOOkkkkkkkkkkxxxxxxxxxxxxdddddddd; 
 cdxxxxxxxxxxxxxxxxxxxxkkkkkkkkkkOOOOOOOOOOOOOOOOOOOOOOOOOOOkkkkkkkkxxxxxxxxxdddddddddddddd, 
 cdddxxxxxxxxxxxxxxxxxxxkkkkkkkkkOOkdlcccc:;,,,;:odkOOOOOOOOkkkkkkkxxxxxxddddddddddoooooooo, 
 cddddddddddddddddddddxxxxxxxxxxxc,.................',:ldxxxxxxxxxddddddooooooollllllllllll' 
 ;ccccccccccccccccccccllllllllll'.........................:ooooooollllllcccccccccclcccccc::. 
 ,::::::::::::::ccccclllooooollc.............  ......     ..cccccc:::::l::::::::::::::::::;. 
 ,::::cccc:cccc::::ccccclllllccc............    ....       ..;ccccc::::lc:;,,,,,,,,,,,;;;;;. 
 ':::::;;;;;,,,,,,,;;::::::::::;..  ....  ..   .....    ......'cc:;;;;;;;,'',,''''',''','''. 
 ',;:::;:;;;,,,',,,,;;:;;:,;;::,.  ..      .   ......   ...... .;;,,,,,,,''''''''...'''''''. 
 .',,;;;;;,,,,'''.'''',,,,,,,:c::.  ...        ..   .....       .,;;;,,,;,'''''''''......... 
 .',';,','';;cc,;,''...''',,''....                   ........    .';;;;,:;',,';,,,'';,',,''. 
 .'',,:,..',;:;';;''''...'',''...         ..           ........   .;odl.;;',,'''''.';;;;,,,. 
 ,,,....',,,.,''...';,'..;;.              .;.            ....      .;:,'cc;,;c::cc,,ccc::::. 
 .;,..'....'',''.;;col:,.'.       ......'.......                   ..:.,cl:;;cc:cc;;looodoo, 
 .''',,;cc'.,.'.'looocol.       ................              ......',,coOo'',;:c;:c::;;;::. 
 ,'':occ;;,cd;'''oxxxcl;. ..................                   .. .',,,coOd,,,;:c;cddolc;;:. 
 ,;;cc;',;;ol:;;:oxkkl.................                 .        .,','.llkxc;;,,''cccc;c,'c' 
 ,l;;;,',,,cc;'':oxkx,..............       ..        . .       .,,,,...'okkx'';''.,;'c;,;:c. 
 .,',;,,,:odll,.:dxd'...'...........       ..                 .,,;;,'...dkkx,',..';c,c:..;;. 
 ......';cxxxdc,cdl'..','........'..         .  ...         ...,,cd:,.;;lddx;',,.'',;,'..',. 
 ;;.',;::ldxxlldxl'..,;,'';' ....'....    ........           ..:lddd:...'ccl:.';;;,',,...':. 
 ,;..,;;:;;:cllxl,,,;;;,':::;,''',.....   ,;'...    .,.       ..lddd:....,cc::cccl:,,c'..',. 
 ':;,;,.':::::;c;;;;::,;ccc:::;,',.....   .::;;,,. ,cl:.........'cddl....,cc,'ccc:,..,;''..  
 ';:cc:'';cl;,:::::cl:':cccccc::;,,,,;,''';:ccccc:..,:oo.........'odl....,cc'.::;;.  .'',,.. 
 .;lc:;;;;c,;ccc::clc;,:ccc::::cc;;::::;;;;cloollc;'.::ok:.    ...cd:....,cc; ...:,  ..'.... 
 .''','.':;:c::::ccc:,;:::::::clolloolc:;cc:loooool;..;,,.      .,o:.....,ccl;.  ;c.  .. ..  
 ...',''..',,,;::cc;',::::ccldxxxxddodo;;:c:lddooooc.           .':'.....,cldo.. ':'.......  
 '....',..';loxkkxxdxdddxddxddddolllllc::::::cc:cc::;;;;;.  ..,,..,;,....,llol.....'''.....  
 '....',.'';cdxkO0OO0000OOkxolc:,,,,;,.;;;::cooooddooollc;;,;;;;'.,;'.,:::lodxo....... .';c. 
 ...;,,...',,:lodxxkkkkkxxdoc:''.......'''',,;cccoodddool:;,,,,;'.';'..:::cclo;;cc:',....:x. 
