 ;lllllllllloooollooooooooooooooooooooooooooooooool....,....... .;lllllccccc:::::::::::::;;. 
 cxxxkkkkkkkkkkkkkkkkkkkkOOOOOOOOOOOOOOOOOOOOOOOOd,..';:,'..'',''okkkxxxxdddddooooooolllllc' 
 cddddxxxxxxxxxxxxxxxxxkkkkkkkkkkkkkkkkkkkkkkkkkk,...,:;'...',::cdkkxxxxddddooooooooooollll' 
 cdddddddddddxxxxxxxxxxxxxkkkkkkkkkkkkkkdolc:;,''.....'........,,:cdkxxxxdddddddddddooooooo, 
 cddddxxxxxxxxxxxxxxxxxkkkkkkkkkkkkkko:,,,,,,,,,,'..    ... .....'';dxxxxxxxxxxxxxddddddddd, 
 cdxxxxxxxxxxxxxxxxxxkkkkkkkkkkkkkOO:'..',,,''''....  .       .......cxxxxxxddddddddddddddd, 
 cxxxxxxxxxxxxxxxxxxxxkkkkkkkkkkkkkkl..........   ...cc;.     .......'dxddddddddddddddddddd, 
 cxxxxxxxxxxxxxxxxxxxxkkkkkkkkkkkkkkk:.. ...         ... ..       .  .,dddddddooooooooooooo, 
 cdddxxxxddddddxxxxdxxxxxxxxxxxxxxxc;ll,.          ..   ... .         'oooooollllllllllllll' 
 ;llllllllcccccclllllllllllooooooo;,,;looc,..     ......,,...'      .'.:ccccccccccccccc::::. 
 ,:::::cccccccccccccclllllllolllllcookxoooooc;.    .....,.  ... .  .,,;::::;;::::::::::::;;. 
 ,:cc:cccc:cccccccccccllllllllllllllooolllllll:.    ..  ............',::;;,,,,,,,,,,,,,;;;;. 
 ,:ccc:::;;;;;,,;,;;;::::::::::::;:;;cxlllccccc:'.      .........,;,'':;;,'''''''''''''''''. 
 ';;:::;;;;;,,,,,,,;;:::;:;;;::::,,;:cxdoolllllllc'.        .....''...,,,'''''''......'''''. 
 .',,;;;:;;,,,'''.'''',,,,,,,:c:c;';;:kddooolllcccc'           ......,;,,,''.'''.''......... 
 .';';;,,'',;::,,',,'''',,;,'''....'':xlcloooodddddl.            .....;,:;',,',,,''','''''.. 
 .'',,:,''',;:;,;;'.''...'','''....'';o:,c;';;cllclc.                .,':;'''''.''.';;;;,',. 
 ','''.'',,'','....',,'..,;..  .........',lkx:',,;;:.                .':cl;,;:;:::,,:::;;;;. 
 .;,..'...''',',';,col:'.'.  ...........'',oOd,;,;cc'                 .;cc:;;cc:cl;;ooodooo, 
 .','',;cc'.'.''.lolococ.   .'........',,,'';ol,;:;,,                 .,oOo,',::c,;::::;:::. 
 ,'':occ;;,:d,'''oxkxll:. .............',,,..'co;:;:;.                .:oOd,',;:c;cooolc;;;. 
 ,;;cc;,,,;ol:,,:oxkkc'....'............''''..'',':c;               ..,lokxc;;,,,'clll:c;.c' 
 ,c;;;,,;,'cc;'':oxkx,....''..................... .';           .....'.,okkx'',,'.,;'::,;:c' 
 .;,,;,,,:oolc,.:dxd'...'''.''''''...............   .         ..........dkkx,',...;c,c:..;;. 
 ......';cxxxx:,cdo'...,''.....'.'.........  .....        .........',.;;odxx;';,.'',;,'..';. 
 ,,.,,,::cxxxlloxl'..';,'','. ...''......... .,'...       ........'o:...,clo:..,,,,',,...';. 
 ,,..,::c;;ccclxl,'',;;,';::;,''',''''''';;;,,,;'...   .  ........'oc....;cc::cccl:;,c'..,,. 
 ';;,;'.';;:::;c;;;;::,,:cc::::;;,,,,,,,',;;;;;;;..c:ll'. .........ol....,cc,'cccc,..,;.'..  
 ';::c;.';:c;':::;:cl:,:cccccc:;;'',,,,''';::;;;:;.'lddx,;........'do....,cc'.::;;.  .''''.. 
 .;lc::;;;l,,ccc::clc;,cccc:::::c;,,;:;,,,,:cccccc;''ldxOc.   ....ld:....,cc: ...:'  ..,.... 
 .',','.':;:c::::ccc;,;::::::::ccclo:::,,;;;clolllc;.';'.       .cxc.....,ccl,.  ;c.  ..  .  
 ...',''...,,,;::c:;',::::::lxkkxxddlol,,;:;cloooooc.      .   ..:l,.....,cldo.  'c'.......  
 .....',..':lodxxddodooodooddxddollllcc;,;;;:::::::;;;;;, ...,;c,.;:;....,llol.....'.'.....  
 '....''..';loxkO00OO000OOkxol:;,,,,,'.,,,;::loooddooool:;,,::::'.;:,';:;:lldxl....'.. .,;:. 
 ...,''...'';:loxkkxkkkkxddlc;''..........''';;:clloodoolc:;,,::'.;:,..cc:ccooc,::;......;d. 
