 ;clllllllllllllllloooooooooooooooooooooooooooooooooooolc...;llllllllllccccc:::::::::::::;;. 
 cxxxkxxkkkkkkkkkkkkkkkkkkkkkOOOOOOOOOOOOOOOOOOOOOOdc;'....',ldxkkkkxxxxxdddddddooooooollll' 
 cdddddddxxxxxxxxxxxxxxxxkkkkkkkkkkkkkkkkkkkkxol::;............,lxxxxxxddddddddooooooooooll, 
 cdddddddddddddxxxxxxxxxxxkkkkkkkkkkkkkkkkkkl,,..................,dxxxxxxxddddddddddddooooo, 
 cdddddxxxxxxxxxxxxxxxxxkkkkkkkkkkkkkkkkkkkd;:,..................';dkkkxxxxxxxxxxdxxxdddddd; 
 cxxxxxxxxxxxxxxxxxxxxkkkkkkkkkkkkkOOOOOOOOx;;,..........',,;;:::;;cdkxxxxxxxxxdddddddddddd, 
 cxxxxxxxxxxxxxxxxxxxxxkkkkkkkkkkkkOOOOOOOOOd:'...........',;;,,''...cxxxxxxddddddddddddddd, 
 cdxxxxxxxxxxxxxxxxxxxxkkkkkkkkkkkkkkkkkkkkkxl;.......................:ddddddddddoooooooooo, 
 cdddddddddddddddxddxxxxxxxxxxxxxxxc:odxxdl;........   ......       ...:oooooolllllllllllll' 
 ;llllllllccccllcclllllllllllooooo;'..,'............    ...       .....':cccccccccccccc::::. 
 ,::::::cccc::ccccccclllllllollllccc............       ...       ..'...';:::::::::::::::::;. 
 ,:::cccc::c::cc::ccclllllllllllll:c',.......            ......  .......,,,,,,,,,,,,,,;;;;;. 
 ,::cc:::;;;;;;,,,,,;::::::::::::;,''.;'........',;,.   ..........'.....,,'''''''''''''''''. 
 ';;:::;;;;;,,,,,,;,;:::;:;;:::::,'''.coollllllllllll'...... ........ .',''''''......''''''. 
 .',,;;;:;,,,,'''.'''',,,,,,;:c:c,','.dddooollllcccc:,         ....    .,''..'''............ 
 .',,;;,,'',;::,,',,'..',,;,''.....'''olcoooooooodoool.          ..   ..:;',',,,,,'',''''''. 
 .'',,:,''.,::;,;,'..'...'','''....'';o:;c,,;:cllcllll,.            ...'l;.''''''..';;;;,',. 
 ','''..',''','....',,'..,;.   .........',lkx;,',,:::cl.              ..:c;,;:;;;:,,:::;;;;. 
 .;,......''',',.,,coc:'.'.  ..........',,;oOo,;,;ccccl..              .cc;,;lcccl;;oooddol, 
 .','',;c:..'.''.lolococ.   .'........',,,''dOl;;:,,:co..              .ckl'',;::,::::;;:::. 
 ''':occ;;,co''''oxxxco;. .............,,,,.'ldo;:;::,;. ..   ...     ..lOo'',;:c;cddolc;;;. 
 ,,;cc;',;;ol:,,:oxxxc'....'..........''''''..'',,:c:;,.  .   .  .....,lokxc;:,,',llll:c,'c' 
 ,c;;;,,;,,:c;'':okkx,....'.....................  .';,;.     ..........;okkd'';,'.;;'c;;;:c' 
 .;,,:,,,:oolc,.:dkd,...'''...''''...............   .','    ............xkkd'''..';c,l;..;;. 
 ......';cxxxx:,cdo'...,''.....'.'.........  .....   '.. ..........',.;;oxxd;';,.'',;,'..';. 
 ,,'',;::lxxxlloxl'..';,'','.....''......... .,'..   .''.........'od:...,clo:.';,;,',,...';. 
 ,,..,;::;;:cllxl,'',;;',:::;,'',,''''''',;;,,,;'..   .:;.........cdc....;cc::cccl;;,c'..,,. 
 ':;,;'.';;:::;c;;,;::,,::::::;;;,,,,,,,',;;;,;;;..:cdd,l:........,dc....;cl,,cccc,..,;.'..  
 ';:cc;'';:c,':::;:cc;':ccccc::;,'',,,,''';::;;;:;.'cllx;c,.......'oo....;cc'.::;;.  .,','.. 
 .:lc:;;;;c,;cc:::clc;,:ccc:::::c;,;;;,,,,,:cccc::,.':cdOd;.......'d:....,cc;....:'  ..'.... 
 .''','.':;::::::ccc;,;:::::::ccc:cc:c;,,;;;cllllcc,..''..     ...l:.....,ccl,.  ;c. ...  .  
 ...','....',,;;:c:;',::::::lxxdkxoolol,,;c;llooool:.           .;c,.....,cldl.  'c........  
 .....',..';codxxddodooododdddddollllcc;,,;;:::;::;;;;;,, ....,,..;:;....,lldl.....'''.....  
 '....',..';coxkOOOO0000Okkdoc:;,,,,,'.,,,;;:loooodooolc:;:::::;'.;:,';:;:lodxc....'.. .'::  
 ...,''...'',:loxkkkkkkkxddlc;'...........''';:::looddoolc;,;,;:'.,:,..ccccloo:;c::......:d. 
