 ;lllllllllooooooooooooooooooooooooooooooood;............'',....,.'llllllcccccc:::::::::::;. 
 cxxkkkkkkkkkkkkkkkkkkkOOOOOOOOOOOOOOOOOOOd:'''.......'';::;'',;ccckkkxxxxddddddddooooooool' 
 cddxxxxxxxxxxxxxxxxxxkkkkkkkkkkkkkkkkkxl;......,,......;:,'..';;;cxkkxxxddddddddddoooooooo, 
 cddddxxxxxxxxxxxxxxxxxxkkkkkkkkkkkkkko,.......lkOx;',''...........:xkkxxxxxddddddddddddddd, 
 cddxxxxxxxxxxxxxxxxxxkkkkkkkkkkkkkkkk:......'lkOOOOOOOOl'..........;xkxxxxxxxxxxxxxxxxdxxd; 
 cxxxxxxxxxxxxxxxxxxkkkkkkkkkkkkkkOOOkl.........;okOO000x'...........:dxxxxxxxxxxxddxdddddd, 
 cxxxxxxxxxxxxxxxxxxkkkkkkkkkkkkkkOOOOkl...........:dkk0O:............:xxxxxxdddddddddddddd, 
 cdxxxxxxxxxxxxxxxxxkkkkkkkkkkkkkkkkkOOkd;.......   ....'.......   . .'oddddddddddddooooooo, 
 cdxxxxxxxxxxxxxxxxxxxxxxxxxxxxxxkxc:ldkkkd;................          .;ooooooooollllllllll, 
 :lllllllllllllllllllllloooooooooo;,,';dddddo;.. .......';'...     ....'cccccccccccccccccc:. 
 ,::ccccccccccccccccllloolloolllolcooxdooooooool,.......''. ... .  .';',:::::::c:::::::::::. 
 ,:ccccccccccccccccclllllooollllllllodoollooooool..... .............',';:;;,;;,,,,,,,;;:::;. 
 ,:ccc::::;;;;;;;;;;:::c:::::::::::::lxlllllllllll;. ............,:;,.,c;,,''''''''','','''. 
 ';::::;:;;;,,,,,,;;;:::::;;:::::;,;:cxdoooooolloool..     ......,,...,;,'''''''....'''''''. 
 .',;:;;:;;,,,,''.'''',;,,,,;clcc;';;:kxdodoolllllll;.         .......:;;''''''''''......... 
 .,;,:;,,'';;cc,,,,,'''',,;,,''....,':xlcoddddddddddl.           .....';c:',,',,,,'',''''''. 
 .',,;:,''';:c:,:;''',...',,,''....'';d:;c;,;:cllllol..             ...:::''''''''.':;;;;,;. 
 ','''''',,'',''...,;,'..;;.............',okx:,,,;:cc..              ..;ll;;;:;:::,,::::::;. 
 ';;..''..''';',';,col:'.'.  ..........',,;dOd;:;;lcc,.               .,ll:;;llcll::oddddoo, 
 .',',,;cc..'.'''loodcoc.   .'........',,,',lkl;;:;;:,                ..lko,',::c;:::::::cc' 
 ,',:occ:;,cd,'',oxxxlo:. .............,,,,..,lo;::cc'  .             .,lOd,',;:l;codolc:;:. 
 ,;;cl;,,;;ol:,;:oxkkl'....''.........'',,''..',;;ccc.   ..        ...'lokkc;:;;,'lloocc;'c' 
 ,l:;;,,;;,cl:',cokkx,....''............''.....'. .,:.          .....'';okkd'',,,';;'c:;;:c' 
 .;,;:;,;:oolc'.cdkd,...'''.''''''...............   ..        .......'..xkkx,',..';c,c:.'::' 
 .''.'.,:lxxxx:;cdo'...,,'.....'.'......... ......        ..........,.::dxkx;,;,.'';:;,..';. 
 ,,',;;::lxxxlloxl,..,;;'','  ...''......... .,'...       ........'l:...,lloc..,;,,',,...':. 
 ,;..;:cc;;clllxl,,,;;;',:::;,''',''''''';;;;;;;'..   ..  ........,dc....;cl::c:co:;;c'..,;. 
 ':;,;,',:::cc:c;;;;::,,:ccc:::;;,,,,;,,',;;;;;;;''lcoo,'.........'ol....,cl;,clcc;..;:',.   
 '::cc;'';cl;,:::::cl:,ccccccc:;,,,,,,,''';::::::;.'ldxx;:........'do....,cc'.c:::.  .',,'.. 
 .:lcc:;;:l;;cccc:llc;,cllc::::cc;;;;:;,,,;:cllccc,''odkOl'. .....lxc....,lc:....:'  .',''.. 
 .,,','',c;:c:cccccc:,;::ccc::cclcldc:c;;;;:looooll;.':,.       .cxl'....,lll,.  :c.  ..  .  
 ..'',,...',,;;::cc;,,c:::::lxkxxkddool;;:c:looooooc.      . . ..cl,.....,lldo.  ,c'.......  
 .....,,..':lodxxddodoooddoddxxdolllolc:;;;;:c::c:::;;;;, ...,;c,.;c:'...;lldo....''''.....  
 '....,,.',:ldxOO0OO0000OOkxdlc;,,,,,'.,,;::codddddddool:;,;ccc:'.;c;';:;:oodxc....'.. .,:c  
 ...;',...',:codxkkxkkkkxxdoc:,'.......''',,,;:clloodddoolc;;;:c,.;c,.'llcllodl,:::.....':d. 
