 ;lllllllllooooooooooooooooooooooooooo:.  ...,looooooooooooooooool;....    .,. ....,:::::;;. 
 cxkkkkkkkkkkkkkkkkkkkkkOOOOOOOOOOOOk:.......ckkkkkkkkkkOOOOOkkOOkc;'....  ........:oooooll' 
 cddxxxxxxxxxxxxxxxxxxkkkkkkkkkkkkkkkkx:'....,dxkkkkkkkkkkkkkkkkl','.............''cooooooo, 
 cdddddxxxxxxxxxxxxxxxxxkkkkkkkkkkkkkkkkx,....,okkkkkkkkkOOOOOOO:............''..,,ldddddod, 
 cddxxxxxxxxxxxxxxxxxxkkkkkkkkkkkkkkkkkkkx,.....:xkkkkkkkOOOOOOOx,'.....'''..''',''oddddddd; 
 cxxxxxxxxxxxxxxxxxxkkkkkkkkkkkkkkOOOOOkkkx......,cllldxkOOOOOOOOk:................oddddddd, 
 cxxxxxxxxxxxxxxxxxxxkkkkkkkkkkkkkOOOOOOkkOc..............':ooodkOl................oddddddd, 
 cxxxxxxxxxxxxxxxxxxkkkkkkkkkkkkkkkkOOkkkkkk:.......................   .......... .oooooooo, 
 cddxxxxxxxxxxxxxxxxxxxxxxxxxxxxxxxccodxxxkkkxl,........ ......     .            .:llllllll, 
 ;lllllllllllllllllllllllooooooooo;,.';oooooooooo:;'..... ...........           .clccccc:::. 
 ,:::cccccccccccccccllllolllllllll:l.'dlllllllllooooolc:;..........             ;c:::::::::. 
 ,cccccccccccccccccclllllloollllllcc':llcccllllllooooooool'... ....            .,;;;,,;;:;;. 
 ,cccc:::;;;;;;;;;;;;::::::::::::;,''.:lccccccc:ccllllllll:........        .....,,',''','''. 
 ';;:::;:;;;,,,,,,;;;:::;:;;:::::;'''.:doolllllcllllllllccc...       ....''...,'''..'''''''. 
 .',;:;;:;;,,,,''''''',,,,,,,clcc;...'dddooolccccc::::;:::;.          ........,,'''......... 
 .';,:;,,,';;::,,,,,'''',,;,'''....'':xlclooooooooooooooooc.          ....  .,;;,,'',''''''. 
 .'',,:,''',:c:,:;''.,...'','''....'';o:,c;';::clcllllcccc:.           .... .,,'''.';;;;;,,. 
 ,,,'''.',,'',''...',,''.;;..  .........',lkk:''',;:::ool:,              ....c::::,,::::::;. 
 .;;..''..''',',',;:ol:'.'.  ..........',,;lOd,;,,c::co:,;.                 .occll;;oddddoo, 
 .',',,;cc'.'.'''colococ.  ..'........',,,''dOo;;;;,;coc,..                 ';:cc;:c:::::cc' 
 ,'':occ;;,:d,'''oxkklo:...............',,,''dOx;;;:;,;'.                   ,;:cl:cddolc:;;. 
 ,;;cl;,;;;dl:;;:oxkkl'....''...........''''..okk:::::,,.             ...  .;:;;,'llll:c;'c' 
 ,l;;;,,;;,cl;'':okkx,....''...................,:o;,;,,,.          .......,l,,;,,';:,c:;;:c' 
 .;,;:;,,:oolc,.:dkd,...'''..'''''...................','           .....'lkk,,,..':l,c:..::' 
 ..'...';cxxxx:,cdo'...,,'.....'.'.........  ......  ...           .....lkkk:,;;''';:;,..';. 
 ,,',,;::lxkxlloxl'..';,'','. ...''......... .,'...   ...    .   ......';oodc.';;;,',,...';. 
 ;;..,::c;;clllxl,,',;;,,:::;,''',,'''''';;,,,,;'...   ''   .............:llc:lcco:;;c'..,;. 
 ':;,;,',;::::;c;;;;::,,:ccc:::;;,,,,;,,',;;;,,,;..'....;'  .............;oo;,llcc;..;:',..  
 '::cc;'';cl;':::;:cc;':cccccc:;,,',,,,''',::;;;;,..:lo;.:' ........;'...;ll,.cc::.  .',,'.. 
 .;lc::;:;l;;cc:::clc;,cclc:::::c;,;::;,,,,:ccc:::,..cldx:,.  ......:....;ll:....:,  .',.... 
 '',','.,:;:c::::ccc:,;:::::::ccc:cl:::,,;;;clllccc,..;,'.      ..;c'....;llo;. .:c.  .. ..  
 ...',''...',,;;:cc;',::::::ldkxxkxdlol;,;c;coooool;            .,l;.....;loxd. .'c'.......  
 .....',..':codxxddodooodooddxxdoolllcc:;,;;:::::;;,,,,,. .....'..;c:''..;oodo....''''.....  
 '....',.'';coxOO00O0000OOkxocc;,,,,,'.,,,:::loooodoollc,''';;:;'.;c;';::coodxl....'.. .,::. 
 ...;''...'';cloxkkkkkkkxxdoc;,'..........''';::clloooollc;,,,;:,.,:,.'llcolodl;cc:'....':d. 
