 ;lllllllllloooolloooooooooooooooooooooooooooooooooooooo;....,,:llllllllcccccc:::::::::::;;. 
 cxxxkkkkkkkkkkkkkkkkkkkOOOOOOOOOOOOOOOOOOOOOOOOOOOOOOOx'.......,dkkkxxxxdddddddoooooollllc' 
 cdddxxxxxxxxxxxxxxxxxkkkkkkkkkkkkkkkkkkkkkkkkkOOOOOOko'........'dxxxxxxxddddddoooooooollll' 
 cddddddddddxxxxxxxxxxxxkkkkkkkkkkkkkkkkkkkkkkkkOOOkOo'.......,,dkkkkkxxxxxddddddddddddddoo, 
 cddddxxxxxxxxxxxxxxxxkkkkkkkkkkkkkkOkkkkkkkkkkOxo:;;,',,,...',,xkkkkkkkkxxxxxxxxxxdddddddd; 
 cdxxxxxxxxxxxxxxxxxkkkkkkkkkkkkkOOOOOOOOOOOOOkl,',,;;;;;:....,;;coxkkkxxxxxxxxxddddddddddd, 
 cxxxxxxxxxxxxxxxxxxxkkkkkkkkkkkkkOOOOOOOOOOOk:'''',::::;,'...''''..':dxxxddddddddddddddddd, 
 cxxxxxxxxxxxxxxxxxxxkkkkkkkkkkkkkOOOOOkkkkkkx'......',,'..............:dddddddoooooooooooo, 
 cdddxxxxxxddddxxxxxxxxxxxxxxxxxxxxc:odxxxxd:'.      ...... ....       .loooolllllllcccllll' 
 ;lllllllllclllllclllllllllooooooo;,.'cool;............  .             .;:ccccccccccccc::::. 
 ,::::ccccccccccccccllllolllollllccl.'dl:..................            .,:;;;::::::::::;;;;. 
 ,:cccccccccc::ccccccllllllollllll:c':cc'...'....                    .';;,,,,,,,,,,,,,,;;;;. 
 ,:ccc:::;;;;;;,;,;;;::::::::::::;,''.cc:.......                ..  .,:;,,'''''''''''''''''. 
 ';;:::;:;;;,,,,,,;;;;::;:;;;::::,.'..coll:,,,'.                ....';,,,'''''''.....''''''. 
 .',;;;;:;;,,,,''.'''',;,,,,,:ccc,....odoooolccc;.                ..'',,,,''.'''.''......... 
 .,;,;;,,'';;::,,',,'..',,;,','.......lc:lodoooddd:                ...;,:;',,',,,,'','''''.. 
 .'',,:,''.;::;,;;''',...'','''.......::,:,,;:cllcl,.               ..:.;;''''''''.';;;,,',. 
 ','''''',,'',''...',,'..;;.............''cxk:,,,,;,.                .c,cl;,;:;;;:,':::;;;;. 
 .;;..''..''',',',,col:'.'.  ...........,,;lOd,;,,l;.                .,ccc:;;lcccl;;looddol, 
 .','',;cc'.'..'.lolococ.   .'........',,,''okl;;:;,.                ..loOo,',::c;;:;:;;:::. 
 ,'':occ;;,:d,'''oxxxco:. ............',,,,..'co;:;:'.           .   ..coOd'',;:c;cooolc;;;. 
 ,;;cc;,,;;ol:,;;oxkkl'....''...........''''..''''::'      .     .. ..'lokxc;;,,,'clll:c;.c' 
 ,l;;;,,;,':l;'':okkx,....''..................... .''      .     ......,lkkx'',,'.,;':;,;;c' 
 .;,,:;,,:oocc,.:dkd,...'''..'''''................  .      .   ......'..dkkx,',...;c,c:..;;. 
 ..'.'.';cxxxx:,cdo'...,''.'...'.'.........  .....         .........,.;;oxxx;,,,.'',:,'..';. 
 ;,'',;::lxxxlloxl'..';,'','  ...''......... .,'...        ........;:...,clo:..,,,,'',....;. 
 ;,..,::c;;ccllxl,'',;;,,:::;,'',,'''''',,;,,,,;'.'.   .  .........cc....;cc::cc:l:;,:'..';. 
 ':;,;,.':;:::;c;;;;::,,cccc:::;;,,,,;,,',;;;;;;;''lcll,'. ........:l....,cc,'cccc,..,;.,.   
 '::cc;'';:c;':::::cl:,:cccccc:;,,',,,,''';;:;;;;;.'lddd,:.........co....,cc'.::;;.  .''''.. 
 .;lc::;;;l;,cc:::clc;,cclc:::::c;,,;:;,,,,:cccccc,..ldxOo;  .....'dc....,cc:....;,  ..'.... 
 .',',''':;;c::c:ccc:,;::::::::cc:cl:c:,,;;;clllllc;.':;;.       'dl.....'ccl,.  ;c.  .. ..  
 ...','....',,;;:cc;',::::::lxkkxxxoloc,,;:;cooooolc.    .  ..  .,c,.....,cldd.  'c'.......  
 .....,,..':lodxxddodooodooddxxdollllcc;,;;;;::::::;;,,,;. ....,'.;:;....,lldo......''.....  
 '....,,.',;coxkOOOO0000OOkxol:;,,,,,'.,,,;::loooddooool:;',',:;'.;:;';:;:lldxl....'.. .,;:  
 ...;',...'';cldxkkxkkkkxxdlc:,'.........'',,;::cloooddoll:;,,:c,.,:,..cc:lcooc,:::......;d. 
