 ;lllllllllloooollooooooooooooooooooooooooooooooooo'..,'....... .;lllllccccc:::::::::::::;;. 
 cxxxkkkkkkkkkkkkkkkkkkkkOOOOOOOOOOOOOOOOOOOOOOOOx,.';:,'..''''''dkkkxxxxdddddooooooolllllc' 
 cddddxxxxxxxxxxxxxxxxxkkkkkkkkkkkkkkkkkkkkkkkkkk,..,:;'...',::coxkkkxxxddddooooooooooollll' 
 cddddddddddxxxxxxxxxxxxxkkkkkkkkkkkkkkkkkkkxxdol'..';'......',;;:lxkkxxxxddddddddddooooooo, 
 cddddxxxxxxxxxxxxxxxxkkkkkkkkkkkkkkkkxo:;,,'...'''.............',,lxxxxxxxxxxxxxxddddddddd, 
 cdxxxxxxxxxxxxxxxxxxkkkkkkkkkkkkOOOkc,''',,,'''',,'..      ........'lxxxxxxxdddddddddddddd, 
 cxxxxxxxxxxxxxxxxxxxxkkkkkkkkkkkkOOk'....'''...........      .......,dxxdddddddddddddddddd, 
 cxxxxxxxxxxxxxxxxxxxxkkkkkkkkkkkkkkkc........       ... ..    ....  .;dddddddooooooooooooo, 
 cdddxxxxxxddddxxxxxxxxxxxxxxxxxxxxc:ll,.  ..      ..   ... .        .,oooooollllllllllllll' 
 ;lllllllllclllllllllllllllooooooo;,.'col:'.      ......,,..'.      .''cccccccccccccccc::::. 
 ,:::::cccccccccccccclllllllolllllcookxoooolc,.    .....,.. ... .  .,,;:;:;;;::::::::::;;;;. 
 ,:::cccccccc::ccccccclllllollllllllooolllllll:.    ..  ............',:;;;,,,,,,,,,,,,,;;;;. 
 ,:ccc:::;;;;;,,;,;;;::::::::::::;:;;cdlllccccc:'.      .........,;,'':;;,'''''''''''''''''. 
 ';;:::;;;;;,,,,,,;,;:::;:;;:::::,,;:cddoolllllllc'.        .....''..',,,'''''''......'''''. 
 .',,;;;:;;,,,'''.'''',,,,,,,:c:c;';;:kddooollccccc'           ......,;,,,''.'''.''......... 
 .';';;,,'',;::,,',,'''',,;,','....'':xlcloododddddl.            .....;,:;',,',,,''','''''.. 
 .'',,:,''',::;,;;'.''...'','''....'';o:,:;';;cllclc.                .,':;'''''.''.';;;;,',. 
 ','''.'',,'',''...',,'..;;..............,lkx:,',;;:.                .,:cl;,;:;:::,,:::;;;;. 
 .;,..'...''',',';,col:'.'.  ...........'',oOd,;,,cc'                 .;cc:;;lc:cl;;ooodooo, 
 .',',,;cc'.'.''.lolococ.   .'........',,,'';ol,;:;,,                 .,oOo,',;:c,;::::;:::. 
 ,'':occ;;,:d,'''oxkxll:. .............',,,..'co;:;:;.                .:oOd,',;:c;cooolc;;;. 
 ,;;cc;,,;;ol:,,:oxkkc'....'............''''..'',':c;               ..,lokkc;;,,,'clll:c;.c' 
 ,c;;;,,;,'cc;'':oxkx,....''..................... .';           .....'.,okkd'',,'.,;'::,;:c' 
 .;,,;,,,:oolc,.:dxd'...'''.''''''...............   .         ..........dkkx,',...;c,c:..;;. 
 ......';cxxxx:,cdo'...,''.....'.'.........  .....        .........',.;;odxx;';,.'',;,'..';. 
 ,,.,,;::cxxxlloxl'..';,'','. ...''......... .,'...       ........'o:...,clo:..,,,,',,...';. 
 ,,..,::c;;ccclxl,'',;;,';::;,''',''''''',;;,,,;'...   .  ........'oc....;cc::cccl:;,c'..,,. 
 ':;,;'.';;:::;c;;;;::,,:cc::::;;,,,,,,,',;;;;;;;..c:ll'. ........'ol....,cc,'cccc,..,;.'..  
 '::cc;.';:c;':::;:cl:,:cccccc:;;'',,,,''';::;;;:;.'lddx,;........'do....,cc'.::;;.  .''''.. 
 .;lc:;;;;l,,ccc::clc;,cccc:::::c;,,;:;,,,,:cccccc;''ldxOc.   ....lx:....,cc: ...:'  ..,.... 
 '',',''':;:c::::ccc;,;::::::::ccclo:::,,;;;clolllc;.';'.       .cxc.....,ccl,.  ;c.  ..  .  
 ...',''...,,,;;:c:;',::::::lxkkdxddlol,,;:;cloooooc.      .   ..:c,.....,cldo. .'c'.......  
 .....',...:lodxxddodooodoodddddollllcc;,;;;:::::::;;;;;, ...,;c,.;:;....,lloo.....'.'.....  
 '....',.'';coxkO0OO0000OOkxol:;,,,,,'.,,,;;:loooddooool:;,;::::'.;:,';:;:lldxl....'.. .,;:. 
 ...,''...'',:loxkkxkkkkxddlc;,...........''';:cclodddoolc:;,;:c'.;:,..cc:llooc;::;......;d. 
