 ;clllllllllllllllloooooooooooooooooooooooooooooooooooooooooooooolllllllccccccc::::::::::;;. 
 cxxxkxxxkkkkkkkkkkkkkkkkkkkkOOOOOOOOOOOOOOOOOOOOOOOOOOOOOOOOOOkkkkkkxxxxxddddddddoooooooll' 
 cdddddxxxxxxxxxxxxxxxxxkkkkkkkkkkkkkkkkkkkkkOOOkxxkkkOOOOOOOOkkkkkkxxxxxddddddddoooooooooo, 
 cddddddddddddddxxxxxxxxxxkkkkkkkkkkkkkkkkkkkkxo:..';cdkOOOOOOOOOkkkkkxxxxxxddddddddddddddd, 
 cdddddxxxxxxxxxxxxxxxxkkkkkkkkkkkkkkkkkkkkkoc'......',lxkOOOOOOOOkkkkkkxxxxxxxxxxxxddddddd; 
 cdxxxxxxxxxxxxxxxxxxxkkkkkkkkkkkkOOOOOOOOOxl:.........,cxOOOOOOOOOkkkkxxxxxxxxxxxddddddddd, 
 cxxxxxxxxxxxxxxxxxxxxxkkkkkkkkkkkOOOOOOOOOOkol'........;::coxkOOOkkkkxxxxxxxdddddddddddddd, 
 cdxxxxxxxxxxxxxxxxxxxxkkkkkkkkkkkkkOOkkkkOOko:'.........'.....';lxkxxxxxdddddddddooooooooo, 
 cdxxxxxxxddddddxxxxxxxxxxxxxxxxxxxc:odxxxkx:'....''',..........  .;oddddooooooolllllllllll, 
 ;lllllllllllllllllllllllloooooooo;,.'loooo:,'',;;;;;,'..........  ..:llccccccccccccccccc::. 
 ,:::cccccccccccccccclllllllolllllcl.'dllll,...',:c::,.....'....   ...:::::::::::::::::::::. 
 ,ccccccccccccccccccclllllllllllll:c':llcc'.   ..,;;;,...........  ...;;;;;,,,,,,,,;,;;:;;;. 
 ,cccc:::;;;;;;;;;;;;::::::::::::;,''.ccc'       ..''...........  ...,;;;,,',,''''',,'','''. 
 ';;:::;:;;;,,,,,,;;;:::;:;;:::::,'''.:ol.       .........   .... .';;,,,''''''''.'.'''''''. 
 .',;:;;:;;,,,'''''''',,,,,,;:ccc;....od;     ......    ..      ...'',,,,'''''','''......... 
 .,;,:;,;,';;::,,',,'''',,;,'''.......lc.........                ....;;,:;',,',,,,'',''''''. 
 .'',,:,''';:c:,:;'..,...'','''.......;:........                   ..:c.:;'','''''.';;;;;,;. 
 ,,'''''',,'','....',,'..,;. ..................   .                 .;c.cc;;;:;;::,,:::::;;. 
 .;;..''..',',',',,col:'.'.  ...........,,';c;...'c..               ..c:cl:;;lccll;:oodddoo, 
 .','',;cc'.'.'''loloclc.   .'........',,,''ldo;::;'.                .;loko,',::c;:::::::cc' 
 ,'':ocl:;,:d,'''oxxklo:...............',,,..'cl;:;:.                .;coOd,',;:c;codolc:;;. 
 ,;;cl:,,;;ol:,;:oxxxl'....''.........''''''..'..':c.               ..;lokxc;;;,,'clll:c;'c' 
 ,l:;;,,;;,cl;',:dkkx;....''................'..'. .'.            ....'.,lkkd,,;,'',;,c:;;:c' 
 .;,;:;,,:lolc,.:dkx,...'''..''','................         .    ........dkkx,',..';c,c:..::. 
 ..'.'.';cxxxx:,cdd'...,,'.'...'.''........ ......         .........,.;;oxxx;,;,.'',:,,..';. 
 ,;',,,::lxxxlloxl'..';;'','.....''......... .,'.'.        .........;...,clo:..,,,,',,...';. 
 ;;..;::c;;clllxl,'',;;,':::;,''','''''',,;;;;;:'.'.. ..   ........;:....;cc::ccco:;,c'..,;. 
 ':;,;,.,:;::c:c;;;;::,,:ccc:::;;,,,,;,,',;;;;;;:''llod;'. ........'c....,cl,'cccc,..,:',..  
 ';:cc;'';cc;,:::;:cc:,:cccccc:;;,,,,,,,'';::::::;''lddx;:.........;o....,cc'.c:::.  .',,'.. 
 .:lc::;;;l;;cc:::clc;,:llc::::c:;,,;;;,,,;:cllccc;''ldx0d:........l:....,cc:....:,  ..,''.. 
 .,,','.,c;:c::::ccc:,;::::::::cccll:c:;;;;:llollll;'':;;.      ..lc'....,cll,.  ;c. ...  .  
 ...,,,....,,,;::cc;,,::::::ldkxdxoolll;,;c:looooooc.       .   .'c,.....,lldd. .'c'.......  
 .....',..':loddxddodooodooddxxdoollolc:;;;;:cc::::;,,,,,......,'.;:;....,lloo.....'''.....  
 '....,,.'';ldxkOOOOO000Okkxolc;,,,,,'.,,,:::looddddoool:;',';:;'.;:,',:;:lodxl....'.. .,:c  
 ...;''...',;cldxkkxkkkxxddoc:,'.......'''',,;:::cloooooll:,,,;:,.,:,..cc:llool,:::.....';o. 
