 ;llllllllloooooooooooooooooooooooooooooooooo:.....:llll,......... ..clllcccccc::::::::::;;. 
 cxkkkkkkkkkkkkkkkkkkkkOOOOOOOOOOOOOOOOOOOOOk;....,dkOOko'.',,,'',,.'dxxxxddddddddoooooooll' 
 cdxxxxxxxxxxxxxxxxxxxkkkkkkkkkkkkkkkkkkkkkx;.....:xkkkOk:;;:;'''',',cdxxdddddddddooooooooo, 
 cddddxxxxxxxxxxxxxxxxxxkkkkkkkkkkkkkkkkkkkc.....'dkkkOOkc:,'.''''..';dxxxxdddddddddddddddd, 
 cdxxxxxxxxxxxxxxxxxxxkkkkkkkkkkkkkkkkkkkkx,.....:kOOOOOOk:.........,:xkxxxxxxxxxxxxxxddxxd; 
 cxxxxxxxxxxxxxxxxxxkkkkkkkkkkkkkkOOOOOkkkk;......':dOOOOOk'.........,oxxxxxxxxxxxxxddddddd, 
 cxxxxxxxxxxxxxxxxxxxkkkkkkkkkkkkkOOOOOOOkkd'........'ldxOO,..       .,dxxxxxdddddddddddddd, 
 cxxxxxxxxxxxxxxxxxxkkkkkkkkkkkkkkkkOOOkkkkko,'''.........'...       ..,oddddddddddoooooooo, 
 cddxxxxxxxxxxxxxxxxxxxxxxxxxxxxxxxc:cdxxxkkkxl..............         ..;ooooooolllllllllll, 
 ;lllllllllllllllllllllllooooooooo;,..;ooooodddo;. .......,..         ...:cccccccccccccc:::. 
 ,:::cccccccccccccccllllollloollolcl,';llllooooooo;............     .''..;::::::cc:::::::::. 
 ,cccccccccccccccccclllllloolllllllllollccclllooool'... .............,'.';,,,,,,,,,;,,;::;;. 
 ,cccc:::;;;;;;,;;;;;::::::::::::;:::lxlcccccccccllo,............',;;'.,c;,'',,'''',,'','''. 
 ';;:::::;:;,,,,,,;;;:::;:;;:::c:,,;:cxdoollllllollll,.     .....','...,;''''''''...'''''''. 
 .,,;::;:;;,,,,''''''',;,,,,;:lcc;';;:kddooollllllcc:,.       .........;;,''.''''''......... 
 .';,:;,;,';;cc,,,,,'''',,;,'''....'':xlcloooddddddddc.          ......,l;',,',,,,'','','''. 
 .'',;:,''',:c;,;;''.,...',,,''....'';o:,c;,;::llclll:.            ....,c:''''''''.':;;;;,;. 
 ,,'''''';,,',''...',;''.;;..  .........',lkk:,,,;::c:..              ..ll;;;c::::,,::::::;. 
 .;;..''..''';',';,col:,.'.. ..........',,;oOx,;,,lccc.               ..:c:;;lcccl;;oodddoo, 
 .',',;:cc'.,.'''loldcoc.   .'........',,,''oko;;:;,:c.                .;kd,',::c;:c::::::c' 
 ,',:olc:;,cd,'''oxxkll:. .............,,,,'.,cd:::::,. .              .:Od,',;:l;cddolc:;:. 
 ,;;cc:,,;;dl:;;:oxkkl'....''...........''''..',,,:c:,            .....clkkc;;;,,'llll:c;'c' 
 ,l:;;,,;;,cl;'':okkx,...'''...................'. .':'          .....'';okkx,',,'',;,c:;;:c' 
 .;,,:;,,:ooll,.:dxd,...'''.''''''...............   ..        .......'..dOkx,',..';c;cc..::' 
 ..'.'.';cxxxx:,cdo'...,,'.....'.'........   .....   .     .........,.;:oxxx;,;,.'',:,,..';. 
 ;;',;;::lxxxlloxl'..';,'','. ...''...........,'...   .   ........'lc...,cloc..;;;,',,...':. 
 ;,..;::c;;clllxl,,,,;;,,:::;,''',''''''';;;,,,;'.... .'  ........'oc....;cc::ccco:;,c,..,;. 
 ,:;,;,.':::c:;c;;;;::,,cccc:::;;,,,,;,,',;;;;;;;''l:od;,..........oo....,cl,'cccc,..,;',..  
 '::cc:'';cl;,:::::cl:,:cccccc:;,'',,,,''',::;;;:;.'codx::........'dd'...,cc'.::;;.  .',,'.. 
 .:lc::;:;l,;ccc::llc;,cccc::::cc;,;;:;,,,,:cccccc;'.lox0o'. .....cxc....,cc: ...:,  ..,.... 
 .',','.':;:c:::cccc:,;::::::::cccclc::,,;;:clollll;..;'.       .cxl'....,lll;.  ;c.  .. ..  
 ...',,'..',;,;::cc;',::::::lxkkxkxdool;,;c;coooool:.  .   . . ..:l,.....,lldd. .'c'.......  
 .....,,..':lodxxxddddodddodxxddollllc:;,,;;::::::::;;;;' ...,;c,.:c:'...,lldo.....'',.....  
 '....',.',;ldxOOOOO0000OOkxdlc;,,,,,'.,,,;::loodddooool:,,;::c:,.;c;';:::oodxl....'.. .,;c. 
 ...;',...',;:loxkkxkkkkxxdoc;,'..........''';:ccllodddoll:;;;:c,.;c;..cc:llodc,c::......:d. 
