 ;llllllllloooooooooooooooooooooooooooooooodl..... .......''...,'...:llllcccccc:::::::::::;. 
 cxkkkkkkkkkkkkkkkkkkkkOOOOOOOOOOOOOOOOOOOOk:...........';;,'',;;'.,okxxxxddddddddooooooool' 
 cdxxxxxxxxxxxxxxxxxxkkkkkkkkkkkkkkkkkkkOko'.....;dd:,',;;,..',,,:ccdxxxxddddddddddoooooooo, 
 cddddxxxxxxxxxxxxxxxxxkkkkkkkkkkkkkkkkkkl'.....,xOkkkxkl'........;:lxkxxxxxddddddddddddddd, 
 cddxxxxxxxxxxxxxxxxxkkkkkkkkkkkkkkkkkkkx;.....,okOOOO00x:.........,cxkkxxxxxxxxxxxxxxxdddd; 
 cxxxxxxxxxxxxxxxxkkkkkkkkkkkkkkkkOOOOOOkl.......'cxOO00Od'... .....'lxxxxxxxxxxxxxxxdddddd, 
 cxxxxxxxxxxxxxxxxxxxkkkkkkkkkkkkkOOOOOOOx:.........,oxkOO,....  .....oxxxxxxxddddddddddddd, 
 cxxxxxxxxxxxxxxxxxxkkkkkkkkkkkkkkkkOOOOOOkl''''...  ....'.....    ...'lddddddddddddooooooo, 
 cdxxxxxxxxxxxxxxxxxxxxxxxxxxxxxxkxc:ldkkkkkd:..............          .,oooooooooolllllolll, 
 :lllllllllllllllllllllooooooooooo;,..;oodddddl,........','.       .....:cccccccclccccccccc. 
 ,cccccccccccccccccclllooooooollolcoodloooooooooo;............     .',..;::::::cc:::c::::::. 
 ,cccccccccccccccccccllllooollllllllodollllloooool'...  ............',.,:;;,;;,,,,,;,;;:::;. 
 ,cccc:::;;;;;;;;;;;::::c::::::::::::lxllllllccclll;.............,;;,..c;,,',,''''',,'','''. 
 ';::::::;;;,,,,,,;;;:c:::;;:::cc;,;:lxdoooooolloooo:.     .....',,....;,''''''''...'''''''. 
 .',;::;:;;,,,,''.'''',;,,,,;clcc;';;ckxdoooolllllccc.         .......;;;''''''''''......... 
 .';,:;,;,';;c:,,,,,'''',,;,','....'':xlcoddddddddddo..         .......;c:,,,',,,,'',''''''. 
 .',,;:,''';::;,:;''',...',,,''....'';dc;c;,;:clllloo..             ...:c:'''','''.';;;;;,;. 
 ','''''',,,',''...,;;''.;;.. ..........',lOk:,,,;:cc'.               .,ll;;;c;:::,,::::::;. 
 .;;.'''..''';',';,col:'.'.. ..........',,;oOd;;,;lcc;                .,ll:;;llcll;;oodddoo, 
 .',',,:cc'.,.'''looococ.   .'........',,,''lxo;;:;;:;                ..lOo,',::c;:c:::::cc' 
 ,',:olc:;;cd,'''oxxklo:. ............',,,,'.,cd;::c:'  .             .,lOd,',;cl;cddolc:;:. 
 ,;;cl:,,;;dl:;;:okkkc'....''.........''''''..'',,cc:.            ....'lokkl;:;,,'llll:c;'c' 
 ,l:;;,,;,,cc;''cokkx,...'''...................'. .':.          .....'.;okkx,';,'',:,c:;;:c' 
 .;,;:;,;:ooll,.:dkd,...'''.''''''...............   ..        .......'..dOkx,',..':c;l:..::' 
 ..'.'.':cxxxx:,cdo'...,,'.'...'.'.........  .....        ..........,.;:oxxx;,;,.'',:;'..';. 
 ,;',,;::lxxxlloxl'..,;,'','.....''...........,'...       ........'oc...,lloc.';;;,',,...':. 
 ,,..;::c;;ccllxl,,,;::,,:::;,,',,,'',''';;;;;;:'.... .'  ........,oc....;cl::ccco:;,c,..,;. 
 ,::,;,.,:::cc:l;;;;::,,cccc:::;;,,,,;,;',;;;;;;;''lcdx:,.........'dl....,ll,,llcc;..,;',..  
 '::cc:'';cl;,:::::cl:,ccccccc:;;,,,,,,''';::::;:;''cddk:c........'dd'...,cl'.:::;.  .',,'.. 
 .:lcc:;:;l;;cccc:llc;,cllc::::cc;;;;:;,,,;:cllccc;''ldx0o'. .....lxc....,ll:....:,  ..,.... 
 .',','.,:::c:cccccl:,;::ccc::cclcloc:c;;;::cooooll;.':,.       .ckl'....,lll;.  ;l.  .. ..  
 ..',,,'..',;;;::cc;,,:::::clxkkxkxdool;,;c:looooooc.  .   . . ..:l;.....,lldd...'c'.......  
 .....,,..':loxxxxddddoddddddxddollllcc:;;;;:c:::c::;;;;, ...,:c,.;c:'...,lldd.....'',.....  
 '....,,.',:ldxOOOOO0000OOkxdlc;,,,,,'.,,;;:cododddddool:,,;ccc:'.;c;';:::oodxl....'.. .,:c. 
 ...;,,...',;:loxkkxkkkkxxooc:,'..........'',;cclloddddool:;;;:c,.;c;..clcllodl;c::'.....:d. 
