 ;cllllllllllllllllllllooooooooooooooooooooooooooollllllllllllllllllllllllllllcccc:::::::;;. 
 cxxxxxxxxkkkkkkkkkkkkkkkkkkkkOOOOOOOOOOOOOkkkkkkkkkkkkkkkkkkkkkkkkkkkkdc:oxxxxddddoooolllc' 
 cdddddddddddddxxxxxxxxxxkkkkkkkkkkkkkkkkkkkkkkkkkkkkkkkkkkkkkkkkkkkkkd'......';:oooooollll, 
 cdddddddddddddddddxxxxxxxxkkkkkkkkkkkkkkkkkkkkkkkkkkkkkkkkkkkkkkkkkx,...   ...''ldddoooooo, 
 cddddddddddddddxxxxxxxxxxkkkkkkkkkkkkkkkkkkkkkkkkkkkkkkkkkkkkkkkkkl'.....  ...''oddddddddd, 
 cddddxxxxxxxxxxxxxxxxxxkkkkkkkkkkkkkkOOOOOOOkkkkkkkkkkkkkkkkkkkkkl.............'oddddddddd, 
 cdxxxxxxxxxxxxxxxxxxxxxxkkkkkkkkkkOOOOOOOOOOkkkkkkkkkkkkkkkkkkkkk:...... .....':dddddddddd, 
 cdddxxxxxxxxxxxxxxxxxxxxkkkkkkkkkkkkOOOOOkkkkkkkkkkkkkkxdol:;;,''.....  .......,oooooooooo, 
 cddddddddddddddddddxxxxxxxxxxxxxkxl:llloolcccc:::;;;;;,......  ..       ... ....,lllllllll' 
 ;llllllllccccccccccllllllllllllc,..........          ........  .                 ;cccc::::. 
 ,::::::::cc::::cccccccllllllllc'.'ccl'   .            .......  .                ..;::::::;. 
 ,::::::::::::::::cccccclllllllc,..cl:'.........       ................          ...,,;;;;;. 
 ,::::::;;;;;;;,;,,;;;:::::::::::;:;:cdlllcccc::::::ccccccccccl:....'.            ..'''''''. 
 ';;;;:;;;;,,,,',';,;;::;:,;;;;::;,;;;ldooolllcclccclllccc:::::,.  ..              ..''''''. 
 .',,;;;;;,,,''''''''',,,,,,;cccc:''..lxdooollccccc::;;;:;;;;;;'.  ..               ........ 
 .',';;,,'',,::','''...',,;,''''......llcoddoooollolllllll'':;'.                    ...''... 
 .'',,;'''',;c:,;,'..'....','''.'.....:c;c;,;:cllccllccc,...;;'.                     .,;,,;. 
 ''''''.',,'','....',,'..,;............. .,dx;''',,;::ol'                        .   .;;;;,. 
 .;,......''',',.,,:ol;'.'.  ..........   .:kd,,',c:::o:,..                      ....cooool' 
 .''.',,::'.'..'.cococl:..  ........       .cxl,,;,,;coc'','...              .... .,;::::cc' 
 ''';lcc;;,:d,'''oxxxllc. ..........        .cxd;;,;;,;...,,''..               ..,cdoolc:;;. 
 ,,;cc:',,,ol;,,;oxxxl'.............         .lkx;::;;,'',;'.                  .,,loll:c,'c' 
 ,c;,,,';,'cc:'':oxxx;..............          .lkk;;;,,,lc,.                . .,,';:,c:;;;c' 
 .;,,;;,,;llc:,.;oxx,...''.....''..............'ldx:',,;::,            .......'..':l;l:..;:. 
 ......';cxxxx:,:do,...'''.....'.'................ ........          .....;o:;:;',,;:;,..';. 
 ,,.',,;;cxxxlcldl'..',,'.''. ...''......... .'...    ..;;.        .   ..ldxl.';;;,',,...';. 
 ,,..,::c;;cccldl,'',;;'';;;,'''','''''',;;,,,,,...    ';;. .        ....:oolclclo:;,c'..,;. 
 ';;',,.';;;::;c;,,,::,':::::;;;;,,,,;,;',;;;,,,,...   .:c. .............:oo:;loll;..;:',..  
 ';;::;..;:c,';:;;;:c:';c::c:::;,''',,,,'';;;;;,;,..',,..;,..............;lo,.ccc:'  .'''... 
 .;cc::;;;c,,:::::ccc;':ccc::::::;,,,,,,,,,::::::;'..cclc,;'  ...........;loc.''.:'  .',.'.. 
 .,,','.':;;c:::::cc;,,;;::::::cc:clc::,,;;;cllccc:'.,olll.     .........;loo,. .:l. ...  .  
 ...'''....',,,;:c:;,,;;;;;;coddxddo:lc;,;:;cllllll:' ..         ..,.....;loxd...,l'.......  
 .....',..';clodddolooloolloodooollllll:,;;;:::::;;;,'''.... .....;c;'..';oodd.''.''',.....  
 '....''..';coxkOOOOO00OOkkdoc:;,',,,'.,,,;;:cllllollcc:,.. .',;'.;c;';::cooxxl....,.. .';:  
 ...,''...'';cldxkxxkkkxxdooc;,'.......'''',,;;;;:cccll::.'.'',;'.,:,.'llcllddo,:::'....';o. 
