 ;lllllllllllollllllooooooooooooooooooooooooooooooooooool:;;:loollllllllcccccc:::::::::::;;. 
 cxxxkkkkkkkkkkkkkkkkkkkkkOOOOOOOOOOOOOOOOOOkkkkOOOOOOko;',:ldxkkkkkxxxxxdddddooooooolllllc, 
 cddddddddxxxxxxxxxxxxxxkkkkkkkkkkkkkkkkkkkkkkkkkkkxl;'......',;ldxxxxxxxddddoooooooollllll, 
 cdddddddddddddddxxxxxxxxxxkkkkkkkkkkkkkkkkkkkkkkko;.............,cdxxxxxxddddddooooooooooo, 
 cddddddddxxxxxxxxxxxxxxxxkkkkkkkkkkkkkkkkkkkkkkkxc;'...'''........;lxkxxxxxxxddddddddddddd; 
 cdxxxxxxxxxxxxxxxxxxxxkkkkkkkkkkkOOOkkkkkkkkkkkkkdl:,,''............;dxxxxxxdddddddddddddd, 
 cxxxxxxxxxxxxxxxxxxxxxxkkkkkkkkkkOOOOOOOkkkkkkkkkkkdlc;'..............cdxddddddddddddddddd, 
 cdxxxxxxxxxxxxxxxxxxxxxkkkkkkkkkkkOOOOkkkkkkkkkkkxxxxxdc;..........  ..:dddddooooooooooooo, 
 cdddxxxxxxdddxxxxxxxxxxxxxxxxxxkkxlcoxkxxxxxxxoc;,,,''. ........       .coooolllllllllllll' 
 ;llllllllcccccccllllllllooooooo:;'...coooolc,..         ....'... ...   .'ccccccccccc::::::. 
 ,::::::ccccccccccccccllllllllc....  .,......            ................';:;:::::::::::::;. 
 ,::::cccc:cccc::cccclllllllll;....        ...          ......... .....'',;,,,,,,,,,,,,;;;;. 
 ,::cc:::;;;;;;,;,;;;:::::::::;...'...    .....         ...        .....';;''''''''''''''''. 
 ';;:::;;;;;,,,,,,;;;:::;:,;;;;::,.....'.......                    ......':'''''.....'''.''. 
 .',,;;;;;,,,,'''.''''',,,,,,:ccc;....:doc,...     ......      ...  ......;,...'............ 
 .';';;,,'',,::,,''''.'',,;,,''...... lc:lo:;'''',:clooo,      ...   ... .,;''','''.'.'''... 
 .'',,:,''.,:::,;;'..'...'','''...... ;:,:,',;:ccclllllcc.      .         .'''''''.';;;,,,,. 
 ',''''.',,'','....',,'..,;..............'cxx;''',;:c:odl,             .  .,,;,,;;'';;;;;;,. 
 .;,......''',''',,:ol;'.'.  ...........'',lko,,,,c:cco:,;.            .....'cccll;;ooooool' 
 .','',;::'.'.'''coloclc.   ..........'',,''okl,,;;,:cdc,''.              ..',;::,;:;;;:::c' 
 ,'';lcc;;,:d,'''oxxxll:. .............',,,.'dkd;:;:;,;'..,.              .'.',:c;:oooc:;;;. 
 ,;;cc:,,,,ol:,,;oxxxl'....'............''''.'dkx::c::;,,,,.              ,;;;,,''clll:c,.c' 
 ,l;;;,,;,'cc;'':oxkx;.....'..................'okk:;:,,;ll'...      .  .;oxd'',''.,;':;;;;:' 
 .;,;:;,,:locc,.:oxx,...'''....'''...............,l;',,;:;..............dkkx'''...;:,c:..;;. 
 ......';cxxxx:,cdo,...''......'.'.........  ...    .'.............. .;;oxxx;',,..',:,'..',. 
 ,,.',,::lxxxllodl'..',,'.,'. ...''......... .''.    .,';..........',...,llo:..,,,'.''....;. 
 ,;..,::c;;ccclxl,'',;;,':::;,''',''''''',,,,,,;..    .;;... ... .cdc....;cc:;c::l;,,:'..';. 
 ';;,;,.';;;:c;c;;,,::,,::::::;;;,,,,,,,',;;,,,,;..    .:.........:dl....,cc,'cc::,..,;.'..  
 ';::c;'';:c;'::;;;cc;':ccccc::;,'',,,,''',;;;;;;,..':. .'.........co....,cc'.::;;.  .'''... 
 .;lc:;;;;l;,cc:::clc;,cccc::::::;,,c;,,',,::cc:::,..:c,'''........':....,cc: ...;'  ..'.... 
 .',','.':;;c:::::cc:,;::::::::cc:ccc::,,;;;clllcc:,..,''.    ...........,ccl,.  ;c.  ..  .  
 ...',''...',,;;:c:;',::::::ldkxxxdollc,,;:;clllool:.    .      ..;,.....,ccdo.  'c'.......  
 .....',...;cldddddodooooooodxxdoolllc:;,;;;;::;::;;,,,'' .. .....;:;....,lloo......''. ...  
 '....',.'';coxkOOOO0000OOkxoc:;,,,,,'.,,,;;:llllooolllc,.,;;;;;'.,:,.;;;;llddc. ..'.. .';:  
 ...;''...'',:ldxkkxkkkxxddlc;,'..........''',;;;:clllllcc,',,;:'.,:,..cc:llool';;;.....';o. 
