 ;lllllllllllollllllooooooooooooooooooooooooooooooooooooooolllllllllllccccccc::::::::::::;;. 
 cxxxkkkkkkkkkkkkkkkkkkkkOOOOOOOOOOOOOOOOOOOOOOOOOOOOOOOkkkkkkkkkkxxxxxdddddddooooooooollll' 
 cdddddxxxxxxxxxxxxxxxxkkkkkkkkkkkkkkOOOOOOOOOOkkOOkkkkkkkkkkkkkkxxxxxdddddddooooooooooolll, 
 cddddddddddddddxxxxxxxxxxkkkkkkkkkkkOOOOOOOOOOOOkkkkkOOkOOOkkkkkkkkxxxxxddddddddddddoooooo, 
 cddddddxxxxxxxxxxxxxxxxkkkkkkkkkkkkOOOOOOOOOOOOOOOOOOOOOOOkkkkkkkkkkkxxxxxxxxxxxxxdddddddd, 
 cdxxxxxxxxxxxxxxxxxxxkkkkkkkkkkkOOOOOOOOOOOOOOOOOOOOOOOOOOOOOOkkkkkkkxxxxxxxxxdddddddddddd, 
 cxxxxxxxxxxxxxxxxxxxxxkkkkkkkkkkOOOOOOOOOOOOOOOOOOOOOOOOOOOOOkkkkkkkxxxxxxdddddddddddddddd, 
 cdxxxxxxxxxxxxxxxxxxxxkkkkkkkkkkOOOOOOOxlc::::clllddddxkOOOkkkkkkkxxxxxdddddddddoooooooooo, 
 cdddxxxxxxxxxdxxxxxxxxxxxxxxxxkkkxloxd:'................'cdxkxxxxxxxddddoooooollllllllllll, 
 ;lllllllllccccclllllllllloooooc,,...,'................ .....;looooollllcccccccccccccccc::c' 
 ,:::::cccccccccccccccllllllll:........................      ..;ccc:::::::::::::::::::::::;. 
 ,::::cccc:ccc:cccccclllllllll:...............  .. ....        .':::::;;;,,,,,,,,,,,,,;;;;;. 
 ,:ccc:::;;;;;;,,,;;;::::::::::;,,,.. ......     ....          ..,;:;;;;,,'''''''''''''''''. 
 ';;:::;;;;;,,,,,,,,;:::::,;:::cc,''.. ..                 ......',,;,,,,''''''''.....''''''. 
 .',,;;;:;,,,,'''.'''',,,,,,;cccc;......                 ..........,;,,,,''..'''............ 
 .';';;,,'',,:;,,',,'..',,;,'''.......l..    ..         .  .  ......,,;,c,','',,'''','''''.. 
 .'',,:,''.;;c;,;;...'...'','''.......c:,;'','          .           .;c.:;.''''''..';;;;,',. 
 ',''''.',''','....',,'..,;. .....    .  .:xc          .            .''.cc,,;:;;;;',:::;;;;. 
 .;,...'..''',''.,,coc:'.'.    ...        .,.      ....           .....;cc;,;lccll;;oododoo' 
 .''.',;::..'.''.llloco:.   ...........          ......            ....cokl,',;::,::::::::c' 
 ''':lcc;;,:o''',oxxxco:. ............'..    .........               ..:oOo'',;:c,cooocc;;;. 
 ,,;cl;,,,;ol:,,:oxxxc'.................     ....'.';;,.              .lokx:;;,,',llll:c,'c' 
 ,c;;;',;,'cl;'':okkx,................         ..',;:,;.           ....;lxko'',''';;'c,;;:c' 
 .;,;:;,,:locc,.:dkd,....... ...                 .,.',;.        .. .....xkko'''..'::,l;.';:. 
 ......';cxxxx:,:do'......   ...                     ..         ...''.;;ddxo;';,.'',:,'..';. 
 ,,',,,;;lxxxllldl'........   ....     ..... ..       .       ....co,...,clo;..;,,'',,...';. 
 ;,..,::c;;ccllxl,'',;,......''''......',;,,;;;.      . .   .....:dd:....;cc;::ccl;;;c...,;. 
 ':;,;'.,;;;:c:c;,,,::,,::ccc::;;,,,;;;;';::;;;;.   .. ..........:odc....,cc',ccc:,..,;.'..  
 ';:c:;.';:c;'::;;;cc;,:ccclcc::;,,,,;;,',:::::::' .,c'.......  ..;ol....,cc..:::;.  .,''... 
 .:ll::;;;l;,cc:::clc;,cllc:ccccc;;;cl:,,;;cclllcc' .,::'..........,;....,cc;....:.  .',.... 
 .,,','.,:;;c::::ccc:,;:::ccccclc:ccccc;;:::looollc,..,,:.      .........,ccc,. .:c. ...  .  
 ...',''...',,;;:c:;',:::::clxxxxxxdool;;:c:looodooc.            .,'.....,ccdc   ,c........  
 .....',..':codddddooooodoodxxxxdoooolc:;;:;ccc::::;,,,'... . ....;:,....;cldl.....'''.....  
 '....',.'';coxkOOOO0000Okkdolc:,,,;;'.,;;::cooooodooll:'..';;;;..;:'.,;;:lldx:....'.. .':;  
 ...,''...',:codxkkxkkkxxdooc;,'.......''',,,::::cloooolcc;',';:'.,;'.'cc:clooc,::;......cd  
