 ;lllllllllllolllllloooooooooooooooooooooooooooooooooooocc......';lllllllccccc:::::::::::;;. 
 cxxxkkkkkkkkkkkkkkkkkkkkOOOOOOOOOOOOOOOOOOOkkkkkkOkkdc,........'.';dxxxxxdddddooooooollllc, 
 cdddddddxxxxxxxxxxxxxxkkkkkkkkkkkkkkkkkkkkkkkkkkkkkc........''.'...'oxxxdddddooooooooollll, 
 cddddddddddddddxxxxxxxxxxkkkkkkkkkkkkkkkkkkkkkkkkkx'.......''''.....:xxxxxddddddddddoooooo, 
 cdddddddddxxxxxxxxxxxxxkkkkkkkkkkkkkkkkkkkkkkkkkkkkc''''....'...'''.:xkxxxxxxxxddddddddddd, 
 cdxxxxxxxxxxxxxxxxxxxxkkkkkkkkkkkOOOkkkkkkkkkkkkkkOkl,''............:xkxxxxxxddddddddddddd, 
 cxxxxxxxxxxxxxxxxxxxxxkkkkkkkkkkkOOOOOOOkkkkkkkkxl;..................,dxxxdddddddddddddddd, 
 cdxxxxxxxxxxxxxxxxxxxxkkkkkkkkkkkkOOOOkkkkkkkxc'.....    .........  ..;ddddddddooooooooooo, 
 cdddxxxxxxddxxxxxxxxxxxxxxxxxxxkkxlcoxkkxxxd;.           .........    .cooooooolllllllllll' 
 ;lllllllllllllllllllllllooooool;,'...:ccc:,.   .. .....  ...........  .'clcccccccccccc::::. 
 ,::::::ccccccccccccccllllllllc..... .     ...........    ..'............,:;;:::::::::::::;. 
 ,::::ccc::ccc::ccccclllllllll:...        .',,'.....      ..............',,,,,,,,,,,,,;;;;;. 
 ,:ccc:::;;;;;;;;;;;;::::::::::;'','..   .',''.......      ..... .......;c;''''''''''''''''. 
 ';;:::;;;;;,,,,,,;,;:::;:,;;;::c;'''..cc:''..........         .........';:'''''.....''''''. 
 .',,;;;:;,,,,'''''''',,,,,,,:lcl;....odoolc;,,,''',,,,;.   .............,c.''''............ 
 .';,;;,,'',,::',''''.'',,;;'''.......llcloooooooooooooo.  .  .... .......:,,',,''''''''''.. 
 .'',,:,'.',;c:,;;'..'....','''.......::;c;,;:cllcloolll:.     ..     ....,,'''''..';;;;,,,. 
 ',,''''.,''','....',,'..,;.............''cxx;''',;:ccddl'           ......,;:,;;;',::;;;;,. 
 .;,...'..''',',',,:ol:'.'.  ...........'';oOo,,,,cccco:;;.         ........,lccll;;ooooool' 
 .','',;::'.'.'..colocl:..  .'........',,,''dkl,,;;,;cdc,,..            ...'',;::;;:;::::cc' 
 ''';lcc:;,:d,'''oxxklo:. ............'',,'''dkd;;;::,:''.,. .           ..'.';:c;:ooocc:;;. 
 ,;;cc:,,,,ol:,,;oxxxl'....''...........''''.'dkk;:c::,,,;,...        .. .c:;;,,,,clll:c,'c' 
 ,l;;;,,;,,cl:'':oxkx;.....'..................'lxk;;:;;;ol'...     .....lkkd'',,'.;;'c;;;:c' 
 .;,;:;,,:locc,.:oxd,...'''...''''.............. ,c'',;;c;..............xOOx'''..';c,l:..;;. 
 ......';cxxxx:,:do'...'''.....'.'.........  ....   .'............. ..;;dkkx;,;,.'',;;'..';. 
 ,,'',,::lxxxlcldl'..',,'','. ...''......... .'..    .,':..........:;...,lod:..,,,,',,...';. 
 ,,..,::c;;clllxl,'',;;,':::;'''',''''''',,,,,,,..    .;;....... 'oxc....;cc:;c:cl:;,:'..';. 
 ';;,;,.,;;;:c;c;;;,::,,::::::;;;,,,,,,,',;;,,,,;..    .:.........cxl....,cl,,cccc;..,;.'.   
 ';:cc;.';:c;'::;;;cc:':cccccc:;,,',,,,''',;;;;;;,..;:. .,..'.....'lo....,cc'.::;;.  .'''... 
 .;lc::;;;l;,cc:::clc;,cccc::::::;,;lc,,',,::cc:::,..c:,,,,........::....,cc; ...;'  ..'.'.. 
 .',','.,:;;c:::::cc:,;::::::::cc:ccl:c,,;;;clllccc'.';,'.    .....,.....,lcl,.  ;c.  ..  .  
 ...','....',,;;:cc;,,::::::ldkxxxdollc,,;:;cllloll:.    .     ...:,.....,lldo.  'c'.......  
 .....',..';codddddodooooooddxxdoolllcc;;;;;:::;::;;,,,'' .. .....;:;....,lldo......''.....  
 '....',..';coxkOOOO0000Okkdol:;,',,,'.,,,;;:lllooooollc,.,;;::;'.;:,';;;:loddc....'.. .';:  
 ...;''...'';:ldxkkxkkkxxddoc:,'..........''',;;;:clllllcc;,,,;:'.,:,..cccllool,;::......:o. 
