 ;llllllllllloollllloooooooooooooooooooooooooooooollllllllllllllllll:;'.'.  .,ccc::::::::;;. 
 cxxxxxxxkkkkkkkkkkkkkkkkkkOOOOOOOOOOOOOOOkkkkkkkkkkkkkkkkkkkkkkkkd;.....   ..;looooolllllc' 
 cdddddddddddddxxxxxxxxxxkkkkkkkkkkkkkkkkkkkkkkkkkkkkkkkkkkkkkkkxx,.............,loooolllll, 
 cddddddddddddddddddxxxxxxxkkkkkkkkkkkkkkkkkkkkkkkkkkkkkkkkkkkkkkd..............';ooooooooo, 
 cdddddddddddddddxxxxxxxxxkkkkkkkkkkkkkkkkkkkkkkkkkkkkkkkxxxxkkkkkl........'...'',odddddddd, 
 cdddxxxxxxxxxxxxxxxxxxxkkkkkkkkkkkkOOkkkkkkkkkkkkkkkkkx;....,dkkkkl.   ........';ddddddddd, 
 cdxxxxxxxxxxxxxxxxxxxxxxkkkkkkkkkkOOOOOOOOOOkkkkkkkkkk:.....;xxxxxxl.     .....,lddddddddd, 
 cdxxxxxxxxxxxxxxxxxxxxxxkkkkkkkkkkkOkkkkkkkkkkkkkkkkkk;....  .....          ...;oooooooooo, 
 cddddxxxddddddddddxxxxxxxxxxxxxxkxlldllll::::;;;,''.........                   .ccccclllll' 
 ;llllccccccccccccccllllllllooool,..,;...             ...............            ':ccc:::::. 
 ,::::::::::::::::::cccllllllllc'.,cco.                . ..'''''.......           ,;:::::;;. 
 ,:::::::::::::::::cccclllllllcc,.'cc,.'.........   ........,,,,,......        .. .,,,;;;;;. 
 ,:::::;;;;;;;,,,,,;;;:::::::::::;;,'.;cccccc::::ccccllllccl:'''... ...        ....''''''''. 
 ';;:::;;;;,,',',',,;;::;:,;;;;::,''..:ooollllcccccclllccc::::,...  ..         .......''.''. 
 .',,;;;;,,,,,'''.''.'',,,,,,:ccc;....ldoooolcccc:::::;;:;;;;;;..              ..'.......... 
 .';';;,,'',,::'''''...',',,'''.......cc:looolllloololllloll:;'        ...   ....''',''''... 
 .'',,;''..,;::,;,'..'....'''''...... ;:,c;';;:cccclllcccllodoc.       ...   .. ...';;;;,',. 
 ',''''.','''''....',,...,,.......    .  .;xx;'''';;::ool:lc:c:.               ..;',::;;;;,. 
 .;,.......'.,''.,,:ol;'.'.  .............,okd,,',c::co:,;:;;cc.              ...c;;ooooool' 
 .''.',,::..'....cococl:.   .'........',,,''oOl,,;,';coc'',,,;,.               .',;:;:;::::. 
 ''';lcc;;,:d,'''lxxxll:. ............'',,,.'okd;;,:;,;...',.'..              ..:;cooolc;;;. 
 ,,;cc;',,,ol:,,;oxxxl'....'...........'''''..dkk;:::;,,',,'.                 .',,clll:c,.c' 
 ,c;,;',,,'cc;'':oxxx;....'...................'dkk;,;,,;ll''                 .',,',;'c:;;::' 
 .;,,;,',:locc,.;oxd,...'''....'''.............'lox:'',,;;,.           ....,',,..';c,c:..;;. 
 ......';cxxxx:':do'...''......'.'......... ...... ........             .,dk:;:;''',:,,..';. 
 ,,.',,;;cxxxlcldl'..',,'.,'. ...''......... .'....   ..;;.            .,oddc.':;;,',,...';. 
 ,,..,:::;,:ccldl,'',;;'';;;;,''',''''''',,,,,,,...    ,;;...       .....:locclcco:;,c'..,;. 
 ';;,;,.';;;::;c;,,,::,,::::::;;;,,,,,,,',;;,,,,,...   .:c..........;....;lo;,llcc,..,;.,..  
 ';;::;..;:c;';:;;::c:':ccccc::;,'',,,,''',;;;;,,,..',. .;,.........,....;ll,.cc::.  .''''.. 
 .;cc::;;;c,,:::::ccc;,:ccc::::::;,,,,,,',,;:cc::;'..cc,'',. ............;ll:.'..:'  ..,.... 
 .',','.':;;c:::::cc:,;::::::::cl:collc,,;;;cclccc:'.,l:c:.     .........;loo;.. :c.  ..  .  
 ...'''....',,,;:c:;',;::;;:coddxxodl:l;,;:;clllllc:.            .',.....;loxd. .'c'.......  
 .....',...;clddddoodooooooooddoollllcc:,;;;;::;:;;;,,,'..... ....;:;'...;oodo.''.''''.....  
 '....',..';coxkOOOOO000Okxdol:;,',,,'.,,,;;:cllllollcc:;...'';;'.;c,';::cooxxl....'.. .,;:  
 ...,.'...'',cloxkxxkkkxxdolc;,'..........''',;;;:cclllc;:,.'',:'.,:,.'clcllodl;::;......;o. 
