 ;llllllllllloollllloooooooooooooooooooooooooooooolllllllllllllllll;'....  ..:ccc::::::::;;. 
 cxxxxxxxkkkkkkkkkkkkkkkkkkOOOOOOOOOOOOOOOkkkkkkkkkkkkkkkkkkkkkkkd;.....  ...':oooooolllllc' 
 cdddddddddddddxxxxxxxxxxkkkkkkkkkkkkkkkkkkkkkkkkkkkkkkkkkkkkkkkx;..............:ooooolllll, 
 cddddddddddddddddddxxxxxxxkkkkkkkkkkkkkkkkkkkkkkkkkkkkkkkkkkkkkx'..............':odooooooo, 
 cdddddddddddddddxxxxxxxxxkkkkkkkkkkkkkkkkkkkkkkkkkkkkkxdlloodkkkd'.......'....',,odddddddd, 
 cdddxxxxxxxxxxxxxxxxxxxxkkkkkkkkkkkOOkkkkkkkkkkkkkkkkx;.....;xkkkd'   .........'cddddddddd, 
 cdxxxxxxxxxxxxxxxxxxxxxxxkkkkkkkkkOOOOOOOOOkkkkkkkkkkl.....,oxxxxdo.      ....';oddddddddd, 
 cdxxxxxxxxxxxxxxxxxxxxxxkkkkkkkkkkkkkkkkkkkkkkkkkkkkkl..    ....           ....:oooooooooo, 
 cdddxxxxddddddddddxxxxxxxxxxxxxxxxlcoolloc:::;;;,''.......                     'clccclllll' 
 ;llllccccccccccccccclllllllooool;..''...             .............              ,:ccc:::::. 
 ,::::::::::::::::::ccclllllllll'.,ccl.                 ....'''......            .;;:::::;;. 
 ,:::::::::::::::::ccccclllllllc,..:,............   .......','........            ',,,;;;;;. 
 ,:::::;;;;;;;,,,,,,;;:::::::::::;,'..;cccccc:::::cclllllc:'..  ......         ....'''.''''. 
 ';;;;;;;,;,,',',',,;;::;:,;;;;::,..'.:oolllllcccccclllcc:::,.   ....         ........''.''. 
 .',,;;;;,,,,''''.''.'',,,',,:ccc;....ldoooolccc:::c::;;:;;;;;'               ...'.......... 
 .';';;,,'',,::'''''...''',,'''.......cc:looolloooolllllllll:;.       ....   ....''','''''.. 
 .'',,;,'..,;:;,;,'..'....'''''...... ;:,c,';::ccccllccccllodo:       ...    ....'.';;;,,',. 
 ''''''.',''','....',,...,;........   ....cxx;'''',;::ool:lc:c:                ..;''::;;;;,. 
 .,,......''.,''.,,:ll;'.'.  ...........',;oOo,,',c:::o:,;:::c:               ..'l;;ooooool' 
 .''.',,::..'....clcocl:.   .'........',,,''dkl,,;,,;coc'',,;;,.               .',;:;:;:::c' 
 ''';lcc;;,:d,'''lxxxcl:. ............'',,,.'dkd;;,;;,;...,,.,..              ..:;cooolc;;;. 
 ,,;cc;',,,oc;,,;oxxxc'....'...........'''''..dkx;::;;,,',;'..                .',,llll:c,.c' 
 ,c;,,',,,'cc;'':oxxx;....''..................,dkk;,;,,;lc,'.              . .',,';;':;;;;:' 
 .;,,;,',;llc:'.;oxd,...'''....'''.............,dxx:',,;::,,.          .. .;',,..';c,c:..;;. 
 ......';cxxxx:':do'...''......'.'......... ................            .:kx:;:;.'',:,,..',. 
 ,,.',,;;cxxxlcldl'..',,'.''. ...''......... .'...    '';;'...        ..;oddl.';,,,',,...';. 
 ,,..,:::;;cccldl,'',;;'';;;,'''''''''''',,,,,,,...   .;;;'......  .'....:locclccl:;,c'..,;. 
 ';;,;'.';;;::;c;,,,::,'::::::;;;,,,,,,,',;;,,,,,...   .:c'.........c....;oo;;llcc,..,;.'..  
 ';;::;.';:c,'::;;;:c;':cccc:::;,''',,,''',;;;;,,'..... .,,.........:....;ll,.cc::.  .'''... 
 .;cc::;;,c,,:::::ccc;,:ccc::::::;,,,,,,',,;cc:::;'..c:...,. ............;ll:.'..:'  ..'.... 
 .',','.':;;c:::::cc:';;:::::::cl:clllc,,;;;cclccc:'.,c::;.    ..........;loo,. .;c.  ..  .  
 ...'''....',,;;;c:;',;::;;:coddxxddl:l;,;:;cllllll:.            ..'.....;loxo.  ,c'.......  
 .....',..';clodddooooloooloodddolllllc:,;;;:::;:;;,''''..    ....;c;'...;oodo.....'''.....  
 '....''..';coxkOOOOO000Okkdoc:;,',,,'.,,,;;:cllloollcc:'...',;;'.;c,';::codxxl....'.. .'::  
 ...,.'...'',cloxkkxkkkxxdolc;,'.......'.'''';;;;:cllolc::,',',:'.,:,.'llcllddl;:c:......:d. 
