 ;cllllllllllllllllllloooooooooooooooooooooooooooolllllllllllllllllllllllllllccccc:::::::;;. 
 cxxxxxxxxkkkkxxxkkkkkkkkkkkkkkkkkOOOOOOOOkkkkkkkkkkkkkkkkkkkkkkkkkkkkkkkkxxxxdddddoooolllc' 
 cddddddddddddddxxxxxxxxxxxxkkkkkkkkkkkkkkkkkkkkkkkkkxxxxxkkkkkkkkkkkkddxxxxxxddddooooollll, 
 codddddddddddddddddxxxxxxxxxkkkkkkkkkkkkkkkkkkkkkkkkkkkkkkkkkkkkkkdc,,,,;cdxxxxddddddooooo, 
 cddddddddddddddddxxxxxxxxxxkkkkkkkkkkkkkkkkkkkkkkkkkkkkkkkkkkkkkx;....'''''oxxxxxxxxdddddd, 
 cddddddxxxxxxxxxxxxxxxxxxkkkkkkkkkkkkOOOOOOOkkkkkkkkkkkkkkkkkd;'.........'.,oxxxxxdddddddd, 
 cdxxxxxxxxxxxxxxxxxxxxxxkkkkkkkkkkkkOOOOOOOkkkkkkkkkkkkkkkkkxo'............'.,dxdddddddddd, 
 cdddddxxxxxxdxxxxxxxxxxxxkkkkkkkkkkkkkkkkkxxxdooolcc:::;,'........ ............ldooooooooo, 
 cdddddddddddddddddddxxxxxxxxxxxxxo:,'.........        ......  ............   . .clllllllll' 
 ;llllllcccccccccccccclllllllllll'....                 .....   .....   ..     ....:cccc::::. 
 ,:::::::::::::::cc:cccllllllllc'.':.....              ....    ....               .;:::::;;. 
 ,::::::::::::::::::ccccllllllcc:'':'':cc:;;::::;;;;;:cccc::;:::...                .,,,;;;;. 
 ,::::::;;;;;;,,;,,,;;;::::::::::;;''.;lcccc:::::ccllllccccc:ccc'.....           ...'''''''. 
 ';;:;:;;;;,,',',',,;;::;:;;;;;::;'''.:dolllllcclcccclcc::::::::........         ...'.'''.'. 
 .',,;;;;,,,,''''..'.'',,,,,,:ccc;.,,,oddoollccc::::::;;;;;;;;;;.  ...          ............ 
 .',';;,,'',,;:','''...''',,''........cl:looooooooololllllll::;'......           ..',''''... 
 .'',,;,'..,;::,;;'..'....''''........;:,:;,,;:cccccllccccloooo;                 ..';;;;,',. 
 ',''''.',,'.,'....',,'..,;..  ...........,xk:''',;;::ool:cc:cc;               ....,:::;;;;. 
 .;,.......'.,''.';:ol;,.'.  ...........''.;xx,,''c:::o:,;;;;cc,           ........;loooool, 
 .'''',,::'.'....:ococcc.   ..........',,,..cxo,,;,';:oc'',,,;;.           ........;;;;;;::. 
 ''';lcc;;,:d,'''lxxxll:. .............',,'..cxx;;,;;,;...',.'.            .....   ;ool::,;. 
 ,;,cc:',,,oc:,,;lxxxl'....''...........''''..cxk:;:;;,,',,'.                     ..ll::;.c' 
 ,l;;;,',,':c:'';oxxx;.....'...................lxO:,:,,,cl,.                   . ...'::,;;:. 
 .;,,;,',;locc,.;oxx,....''.....''..............:lxc'',,;;,.                  ..  .;,::..;;. 
 ......';cxxxxc':oo,...'''.....'.'.......... ...   ........                       .,:,,...,. 
 ,;.',,;;cdxxlcldl'..',,'.''. ....'......... .''.     ..,,.             .;c.      '','....;. 
 ,;..,;;:;;:cccdl,'',;;,';;;;,''''''''''',,,,,,,...    .;,.            ..:l.     .:;,:,..';. 
 ';;,,,.';;;;:;c;,,,;;,':::::;;;,,',,,,,',;;,,,,,...    ;c. ...      ....;c..    ;;..,;''..  
 ';;::;'.;:c;';:;;;:c:';cccc:::;,,''',,''',;;;,,,,..','. ,,. ....    ....,;     .:'  .''''.. 
 .;cc:;;;;c,,:::::ccc;':ccc::::::;,,,,,,'',;::::;;,..cccc,,'  ...    ....,'    ..:,  ..'.... 
 '''','.':;;c:::::c::,,;;::::::cc;:ccc:,,;;;:lcccc:,..lccc.          .....      .;l.  ..  .  
 ...','....',,,;;::;'';::;;:coddxdddlcl;,,:;:lllllc:'              '.......    ..'c,.......  
 '....',...;clddddooooooooooodoollccc:c:,,;;;::;:;;;,,''. ..      ,c:'...,,.  ..'.''''.....  
 '.....,..';codkOOOkO000Okkdoc:;,',,,'.',,;;;cllllollcc:,..    ''.,c;';;.. .;do....'.. .',c. 
 ...,''....',:loxxxxxkkxxdolc;,'..........''',,;;;:ccll::.'..  .'.':;..c:;;ldxo;:::......;o. 
