 ;lllllllllllollllllooooooooooooooooooooooooooooooooooooc',,.......,clllccccc::::::::::::;;. 
 cxxxkkkkkkkkkkkkkkkkkkkkOOOOOOOOOOOOOOOOOOOkkkkkkkkkxc,.............cxxxddddddoooooooolllc, 
 cdddddddxxxxxxxxxxxxxxkkkkkkkkkkkkkkkkkkkkkkkkkkkkkkl'......'''......oxddddddooooooooollll, 
 cddddddddddddddxxxxxxxxxxkkkkkkkkkkkkkkkkkkkkkkkkkkx'......'''.......lxxxxddddddddddoooooo, 
 cddddddddxxxxxxxxxxxxxxkkkkkkkkkkkkkkkkkkkkkkkkkkkkkc''.....'...','';dkxxxxxxxxxdddddddddd, 
 cdxxxxxxxxxxxxxxxxxxxxkkkkkkkkkkkOOOOOOkkkkkkkxoc;'...............'.;dxxxxxxxddddddddddddd, 
 cxxxxxxxxxxxxxxxxxxxxxxkkkkkkkkkkOOOOOOOOkkko,.....      ............;xxxxxddddddddddddddd, 
 cdxxxxxxxxxxxxxxxxxxxxkkkkkkkkkkkOOOOOkkkko'.......       ......... ..,odddddddooooooooooo, 
 cdddxxxxxdddddxxxxxxxxxxxxxxxxxkkxlcoxkxd'............. ..........   ..:ooooooolllllllllll' 
 ;llllllllcccccccllllllllloooool;,'...;::'.,,,'......... ............  ..:ccccccccccccc::::. 
 ,::::::ccccccccccccccllllllllc.....     .,,,','.....     ...............,;;;:::::::::::::;. 
 ,::::ccc::ccc:::cccccllllllllc...       .''''.......     ..........''..,:;,,,,,,,,,,,;;;;;. 
 ,:ccc:::;;;;;;;;,;;;::::::::::;'',''. .......''......    ..  ..........:l;''''''''''''''''. 
 ';;:::;;;;;,,,,,,;,;:::;:,;;;::c,'''.,loollcccclc::;;,.      .. .......,:c'''''.....''''''. 
 .',,;;;:;,,,,'''.'''',,,,,,;cccl;....oddooollcccccc::::.  .. ...........,c.''''............ 
 .';,;;,,'',,::,,''''.'',,;,'''.......olcloooooooooooooo.     .... .......:,'',,''''''''''.. 
 .'',,:,''.;;c;,;;'..'....','''.......::;c;,;:cllcloolll:.     ..     ....;,'''''..';;;;,,,. 
 ',''''.',,'','....',,'..,;..............,cxd;''',;:ccodl.           .....',;:;;;;'':::;;;;. 
 .;,...'..''',',',,:oc:'.'.  ...........'';oko,,,,cccco:;,.          .......,lcccl;;ooooool' 
 .','',;::'.'.'..clloco:.   .'........',,,''dOl,,;;,;cdc,'.           . ...'',;::;;:;:;::::' 
 ''';lcc;;,:o,'''oxxxll:. ............'',,,.'dkd;:;::,;''',. .           ..'.';:c;:ooocc:;;. 
 ,,;cc;,,,,ol:,,;oxxxc'....''..........'''''.'dkk:::::,,,;,...        .. .l:;;,,',clll:c,'c' 
 ,c;;,,,;,'cc;'':okkx,....''..................'oxk;;:,;;ol....    ......lkkd'',,'.,;':;;;:c' 
 .;,;:;,,:locc'.:dkd,...'''...''''...............,c'',;;:;..............xOkx'''..';c,c:..;;. 
 ......';cxxxx:,:do'...,''.....'.'......... .....   .'............. ..;:dxkx;,;,.'';;,,..';. 
 ,,'',,;;cxxdlcldl'..',,'','. ...''......... .'..    .,';........ .:;...,lld:..,,,,'',...';. 
 ,,..,::c;;ccllxl,'',;;,':::;'''',''''''',,,,,,,..    .;;....... 'odc....;cc::c:cl:;,:'..,;. 
 ';;,;,.';;;::;c;;,,::,,::::::;;;,,,,,,,',;;,,,,,..    .c'........cxl....;cl,,cccc,..,;.'.   
 ';:::;.';:c;'::;;;cc;':cccccc:;,,,,,,,''',;;;;;;,..;:. .;..'.....'oo....,cc'.::;;.  .'''... 
 .;lc:;;;;c,,cc:::clc;,cccc::::::;,;c:;,',,::cc:::,.'c:,,,,........::....,cc; ...:'  ..'.... 
 .,,','.,:;;c:::::cc:,;::::::::cc:cllcc,,;;;clllccc'.';,'.    .....,.....,cll,.  ;c.  ..  .  
 ...','....',,;;:cc;,,::::::cdxxxxdolll,,;:;clllool:.   ..     ...:,.....,cldo   'c'.......  
 .....',..';codddddodooooooodxxxoollllc;,;;;:::;::;;,,,'' .. .....;:;....,lldo.....'''.....  
 '....''..';coxkOOOOO000Okkdol:;,',,,'.,,,;;:llllooolllc,.,;;::;'.;:,';;;:lodxc....'.. .';:  
 ...,''...'';codxkxxkkkxxddlc;,'..........''';;;:clllollcc,',,;:'.,:,.'cccllool,:::.....':d. 
