 ;cllllllllllllllllllllooooooooooooooooooooooooooolllllllllllllllllllllllllllccccc:::::::;;. 
 cxxxxxxxxkkkkxxxkkkkkkkkkkkkkkkkkOOOOOOOOkkkkkkkkkkkkkkkkkkkkkkkkkkkkkkkkxxxxdddddoooolllc' 
 cddddddddddddddxxxxxxxxxxxxkkkkkkkkkkkkkkkkkkkkkkkkkxxxxxkkkkkkkkkkkkdoodxxxdddddoooolllll, 
 codddddddddddddddddxxxxxxxxxkkkkkkkkkkkkkkkkkkkkkkkkkkkkkkkkkkkkkkd:'',;,,:xxxddddddoooooo, 
 cddddddddddddddddxxxxxxxxxxkkkkkkkkkkkkkkkkkkkkkkkkkkkkkkkkkkkkdo;.....'''';xxxxxxxddddddd, 
 cdddddxxxxxxxxxxxxxxxxxxxkkkkkkkkkkkkOOOOOOOkkkkkkkkkkkkkkkkkk,.............:dxxxxdddddddd, 
 cdxxxxxxxxxxxxxxxxxxxxxxkkkkkkkkkkkkOOOOOOOOkkkkkkkkkkkkkkkkkk:............'..oxdddddddddd, 
 cddddxxxxxxddxxxxxxxxxxxxkkkkkkkkkkkkOOkkkkkkkxxxddoollc:;,.......  ...........:oooooooooo, 
 cdddddddddddddddddddxxxxxxxxxxxxxxlc:;;,;,'.......    ......  ............   . .:lllllllll' 
 ;llllclolcccccccccccllllllllllll;.....                .....   .....   ..    ... .:cccc::::. 
 ,::::::::::::::::::cccllllllllc'.':.                  ...   . ...                .;::::;;;. 
 ,:::::::::::::::::cccllllllllcc;..;..,;;,,,,,,,,'''',;;;;,,,,,,....               .,,,;;;,. 
 ,::::::;;;;;;,,;,;;;;::::::::::::;''.;lccc::::::ccllllcccclcccc......           ...'''''''. 
 ';;;;;;;,;,,',',',,;;::;:,;;;;::;,,,,cooollllcccccccllc::::::::........        ....'.'''''. 
 .'',;;;;,,,,'''''''.'',,,'',:ccc:',,,odooollccc::::::;;;;;;;;;;.  ..            ........... 
 .',';;,;'',,;:'''''..''',,,'''.......clcloolllllllllllllllc:;;'......           ..''..'.... 
 .'',,;,'..,;::,;,'..'....'''''.......,:,c;,,:cllcclllccclloooo,                 ..';;;,,',. 
 ''''''..'''''.....',,...,;...............,dx;'''',:::loc:cc:cc;                 ..';;;,;,,. 
 .;,.......'.,''.',;ll;'.'.  ...........''.;kd,,',c:::l:,;;;;cc,           ........;oooooll' 
 .''..',::'......:oclcc:.   .'........'',,..cxo,,;,,;:oc'',,;;,.           ........';;;;::c' 
 ''';lcc;;,;o,'''lxxxllc. .............',,'..cxd;;,;;,;'..',.'.                    'llc:;,,. 
 ',,:c:',,,lc:',,lxxxl'.................''''..lxk:::;;,''','.                     ..cl::,.c' 
 ,c;;;,',,':c;'':lxxx;.....'...................lxk:,:,,,lc'.                   .  ..':;;;;:' 
 .;';;;,,;clc:,.;oxx;....''....'''.............'cokc'',,;;,.                       ,,c:..;;. 
 ......';:xxxx:':oo,...'''.....'.'..............   ........               ..      .,:,,...,. 
 ,,.',,;;cxxxlcldo'..',,'.''. ...''......... .'..     ..,,.             .;o,      ..,'....;. 
 ,;..,;:c;;ccccdl,'',;;,';;;,'''''''''''',,,'',,..     .;,.            ..:o,.    .;;,:'..';. 
 ';;,,,.';;;::;c;,,,;:,':::::;;;,,',,,,,',;;,,,,,..     ;c. ...      ....;o'.    ';..;;.,.   
 ';;::;..;;:;';;;;;:c:';c::cc::;,,''',,'.',;;;,,,'...'' .,,. ....    ....,l.    .:'  .'''... 
 .;cc:;;;,c,,::::;ccc;':ccc::::::,,,,,,''',;::::;;,..cccc',.  ...    ....,:     .:,  ..'.... 
 .,,','.':;,::::::c::,,;;:::::::c;:ccc;,,;;;:cccc::,.'lcll.          ....'.      :l.  ..     
 ...'''....',,,;;::;'';;;;;;:oddddddlcc,,;:;:lllllc:'              '.......'     'l'.......  
 .....',...;clodddololllolloodooolclc:c:,,;;;::;:;;;,''.. .. .    ,c:....;l:.  .'.''',.....  
 '.....,..',:odkOOOkO00OOkxdoc:;,'',,'.',,;;;cllllollcc:,..   .''.;c;';;;'.. .,....'.. .';:  
 ...,''....';cloxxxxxkkxxdol:;,'.......'..''',;;;:ccccc::.'.   ''.,:,.'llc;'.do,:::.....';o. 
