 ;cllllllllllllllllllllooooooooooooooooooooooooooolllllllllllllllllllllllllllccccc:::::::;;. 
 cxxxxxxxxkkkkxxxkkkkkkkkkkkkkkkkkOOOOOOOOkkkkkkkkkkkkkkkkkkkkkkkkkkkkkkkkxxxxdddddoooolllc' 
 cddddddddddddddxxxxxxxxxxxxkkkkkkkkkkkkkkkkkkkkkkkkkxxxxxkkkkkkkkkkkkdlodxxxdddddoooolllll, 
 codddddddddddddddddxxxxxxxxxkkkkkkkkkkkkkkkkkkkkkkkkkkkkkkkkkkkkkkd:,.,;,;:dxxddddddoooooo, 
 cddddddddddddddddxxxxxxxxxxkkkkkkkkkkkkkkkkkkkkkkkkkkkkkkkkkkkxol;.....'',';dxxxxxxddddddd, 
 cdddddxxxxxxxxxxxxxxxxxxxkkkkkkkkkkkkOOOOOOOkkkkkkkkkkkkkkkkkk;.............;oxxxxdddddddd, 
 cdxxxxxxxxxxxxxxxxxxxxxxkkkkkkkkkkkkOOOOOOOOkkkkkkkkkkkkkkkkkkl............'..lxdddddddddd, 
 cddddxxxxxxddxxxxxxxxxxxxkkkkkkkkkkkkOOkkkkkkkkkxxddoolc:;,'...................:oooooooooo, 
 cdddddddddddddddddddxxxxxxxxxxxxxxlc::;;;;''......    ......  ...........    . .:lllllllll' 
 ;lllllclllccccccccccllllllllllll;......               .....   .....   ..    ... .:c:c:::::. 
 ,::::::::::::::::::cccllllllllc'.':.                  ...   . ...                .;::::;;;. 
 ,:::::::::::::::::cccllllllllcc,..:..',;,''',''''...',;,,,'',,,....               .,,,;;;,. 
 ,::::::;;;;;;,,;,;;;;::::::::::::,''.:lcccc:::::ccllllcccclcccc......           ...'''''''. 
 ';;;;;;;,;,,',',',,;;::;:,;;;;::,',,;loolllllcccccccllc::::::::........        ....'.'''''. 
 .'',;;;;,,,,''''.''.'',,,'',:ccc;.;,,ddooollccc:::::;;;;;;;;;;;.  ...       .   ........... 
 .',';;,,'',,;;'''''..'',,,,'''.......cl:loolllllllllllllllc:;;'   ..             .''..'.... 
 .'',,;,'..,;:;,;,'..'....'''''.......;:,c;,;:cllcclllccclloooo,                  .';;;,,',. 
 ''''''..'''''.....',''..,;...............,dd;'''',:::loc:cc:cc,            .     .';;;,;,,. 
 .;,...'..''.,''.'':lc;'.'.  ...........''.:kd,,',c:::l:,;:;;cc,            .....  'looooll' 
 .''.'',:;.......clclcl:..  .'........',,,..cxl,,;,,;coc'',,;;,.             ..... .,;;;::c' 
 ''';lcc;;,;o''''lxxxclc. .............',,,..lko;;,;;,;...',.'.                     :lc:;,,. 
 ,,,:c:',,,lc;',;lxxxc'....'............''''..oxx;::;;,''','.                       ,c::,.c' 
 ,c;;;,',,'cc;'':oxxx;.....'..................'oxk;,;,,,cc'.                     . ..;;;;;:' 
 .;',;;',;clc:'.;oxx,...'''....'''.............'cok:'',;:;,.                       ',c:..;;. 
  .....';cxxxx:':od,...'''.....'.'......... ..... .........               ..      .,:,,..',. 
 ,,'',,;;cxxxlcldl'...,,'.'.. ...'.......... .'..     ..,,.             .;o'.     '.,,....;. 
 ,,..,;:c;;clccdl,'',;;,';;;,'''''''''''',,,'',,...    ';,.            ..:c..    ,:;,:'..';. 
 ';;','.';;;::;c;,,,;;,';::::;;;,,',,,,,',;;,,,,,...   .;c. ...      ....;,.    .c;..;;.,.   
 ';;::;..;::,';;;;;:c;';c::::::;,'''',,'.',;;;,,,'...'. .;,. ....    ....,.    '::'  .'''... 
 .;cc:;;;,c,,::::;ccc;':ccc::::::,,,,,,''',;::::;;'..ccl:',.  ...    .....    .'.:,  ..''... 
 .,,','.':;;::::::c:;,,;;;:::::::;:cc:;,,,;;:cccc::'.'lcll.          ....     ...:c.  ..  .  
 ...','....',,,;;::;'';;;;;;:oddddodclc;,;:;:lllllc:. ..           ......'.  . ..'c'.......  
 .....',...;clooooololllolloodooolclc:c:,,;;;::;:;;;,'... ..      ,c;'..... .l.''.''''.....  
 '.....,..',:odkOOOkO00OOkxdoc:;'''','.'',;;;cllllollcc:,..   .''.;c;';,'.'cxxc....'.. .';:  
 ...,''....';cloxxxxxkkxxdol:;,'.......'.'',,;;;;:ccccc::.'.   ''.,:,.'lllooddo,:::.....';l. 
