 ;lllllllllllolllllloooooooooooooooooooooooooooooooooooooooll:.     ....';cccc:::::::::::;;. 
 cxxxxxxxkkkkkkkkkkkkkkkkkOOOOOOOOOOOOOOOOOOkkkkkkkkkkkkkkkko:'............;odooooooolllllc' 
 cdddddddxxdxxxxxxxxxxxxkkkkkkkkkkkkkkkkkkkkkkkkkkkkkkkkkkkx:................cooooooooollll, 
 cddddddddddddddddxxxxxxxxxkkkkkkkkkkkkkkkkkkkkkkkkkkxl;,;co:..............''codddddddooooo, 
 cddddddddddxxxxxxxxxxxxxxkkkkkkkkkkkkkkkkkkkkkkkkkxo'......,,.    .......'';oddddddddddddd, 
 cddxxxxxxxxxxxxxxxxxxxxkkkkkkkkkkOOOOOOOOOkkkkkkkkd'........''.      ....,;cdddddddddddddd, 
 cxxxxxxxxxxxxxxxxxxxxxxkkkkkkkkkkOOOOOOOOOkkkkkkkkd',,'....''.'.     .....,odddddddddddddo, 
 cdxxxxxxxxxxxxxxxxxxxxxkkkkkkkkkkOOOOOOkkkkkkkkkkkx::;.....',,''..        .lddoooooooooooo, 
 cddddxxxdddddddddxxxxxxxxxxxxxxxkxlloddoooollc:::;;,,,......''''....       'llllllllllclll' 
 ;lllllllcccccccccccllllllllllll:.......           ......   ..........      .;ccccccccc::::. 
 ,::::::c::cc::ccccccclllllllll:...,.               ..  .      ........ ......::::::::::::;. 
 ,::::ccc::c:::::cccccllllllllc:.. .......            ......    ..............,,,,,,,,;;;;,. 
 ,:c:::::;;;;;,,,,,;;::::::::::::;,''..ccccc:;;,,;;:ccllll:.  ..       ......''''''''''''''. 
 ';;:::;;;;;,,,',,;,;:::;:;;;;::c,'''.coooolllllllllllllc:;.....    ........',''.....''''''. 
 .',;;;;;;,,,,'''.'''',,,,,,;:ccc;....dddooollccccc::::::;,..................''''........... 
 .',,;;,,'',,::,,'''...',,;,'''.......lccloooooooooooooooll.     ....  ......,,,'''','''''.. 
 .'',,:,''.,::;,;,''.'...'','''.......::;c,,;::llccllllccll,      ..   .   ..''''..';;;;,',. 
 ',''''.',''','....',,'..,;.  ........'.',lkx;''',;:::odl:l,.             ...,;;;;',:::;;;;. 
 .;,......''',''.,,coc:'.'.  ...........,,;oOd,;,,c::co:,;;;.              ..':ccl;;ooooool, 
 .','',;::'.'.''.llloco:.   .'........',,,''dkl,,;,,:cd:,',;'.              ..;::,;:::;;:::. 
 ''';lcc;;,:d,'''oxxxco:. ............'',,,.,dkd;;;:;,;'..,,..              .,;:c;cooocc;;;. 
 ,,;cc;,,,,ol;,,:oxxxc'....'..........''''''.'dkx;:::;,,,,;... .           ..;,,',llll:c,'c' 
 ,c;;;',;,'cl;'':oxkx,....''.............'....,dkk;;:,;;ol,....      .....':'',,'';;'c;;;:c' 
 .;,,;,,,:llcc'.:dxd,...'''...''''.............,:lx:',;;::,.............:kOx,''..':c,l:.';;. 
 ....'.';cxxxx:,cdo'...,'......'.'.........  ....  ..'.................;xkkx;,:,''',;,'..,;. 
 ,,.,,,;;lxxxlcldl'..',,'','  ...''......... .,...   .,';;........  ...';lod:.';;,'',,...';. 
 ,,..,::c;;ccclxl,'',;;,'::;;''',,,'''''',;,,,,,..    .;:,....... .c:....:ll:ccccl;;,c...,,. 
 ';;,;'.';;;::;c;;;,::,,::::::;;;,,,,,,,',;;,,,,,..    .:c.........oc....;ll,;ccc:,..,;''..  
 ';::c;.';:c,'::;;:cc;,:cccccc:;,,,,',,''';;;;;;;,..',. .;'........;o....;ll'.c::;.  .''''.. 
 .;lc:;;;;c,,cc:::clc;,:ccc:::::c;,;c:;,,,,::cc:::'.'c:'..,........';....;ll;....:.  ..'.... 
 .,,','.':;;c:::::cc;,;::::::::cc:clllc,,;;;clllcc:'.',''.    ...........;lll,. .:c. ...  .  
 ...','....',,;;:c:;',:::;::lxxxkkxdool;,;c;cllllll;.    .      ..,,.....;llxl   ,c........  
 .....',..';clddddoodooooooddxxxdolllcc:;;;;:::;;;;,,,,''  . .....:c;....;oodl......''.....  
 '....',.'';coxkOOOOO000Okkdoc:;,',,,'.,,,;;:lllloollllc,.',,;;;'.;:,';:::oodxc....'.. .':;  
 ...,.'...'';cloxkkxkkkxxdol:;,'........''''';;;:cllllolc:,',,;:'.;:,.'clcllodc;c::......:d. 
