 ;cllllllllllllllllllllooooooooooooooooooooooooooolllllllllllllllllllllllllllccccc:::::::;;. 
 cxxxxxxxxkkkkxxxkkkkkkkkkkkkkkkkkOOOOOOOOkkkkkkkkkkkkkkkkkkkkkkkkkkkkkkkkxxxxdddddoooolllc' 
 cddddddddddddddxxxxxxxxxxxxkkkkkkkkkkkkkkkkkkkkkkkkkxxxxxkkkkkkkkkkkxolclodxdddddooooollll, 
 codddddddddddddddddxxxxxxxxxkkkkkkkkkkkkkkkkkkkkkkkkkkkkkkkkkkkkkkx:'..,,,,lxxdddddddooooo, 
 cddddddddddddddddxxxxxxxxxxkkkkkkkkkkkkkkkkkkkkkkkkkkkkkkkkkkkkl;;......''''oxxxxxdddddddd, 
 cdddddxxxxxxxxxxxxxxxxxxxkkkkkkkkkkkkOOOOOOOkkkkkkkkkkkkkkkkkkx,...........';oxxxxdddddddd, 
 cdxxxxxxxxxxxxxxxxxxxxxxkkkkkkkkkkkkOOOOOOOOkkkkkkkkkkkkkkkkkkd...  .......'.'oddddddddddd, 
 cddddxxxxxxxxxxxxxxxxxxxxkkkkkkkkkkkkkkkkkkkkkkkkxxddool:;,'................ ..;oooooooooo, 
 cdddddddddddddddddddxxxxxxxxxxxxxxcc::;;;;'''.....    ......  ......  ....   ...;lllllllll' 
 ;llllccccclcccccccccllllllllllol,......  .            .....    ....         ... .:cccc::::. 
 ,::::::::::::::::::cccllllllllc'.':.                  ....  .  ..                .;::::;;;. 
 ,:::::::::::::::::cccllllllllcc,..;..',;,''',''''...',,,,''',,,....             ...,,,;;;;. 
 ,::::::;;;;;;,,;,,,;;:::::::::::;,''.:cccc::::::ccllllccccl:ccc......           ...'''''''. 
 ';;;;;;;,;,,',',',,;;::;;,;;;;::,',;:odoollllccccccllcc::::::::........       .....'.'''''. 
 .'',;;;;,,,,'''''''.'',,''',:ccc;',,,ddoolllccc::::::;;;;;;;;;,.  ..        .. ............ 
 .',';,,,'',,;;'''''...'',,,'''.......lc:loolllllllllllllllc:;;.   ...            .''..''... 
 .'',,;''..,;:;,;,...'....'''''.......;:,c;,;:cllccllcccclloodo,                  .';,;,,',. 
 '''.''.',''''.....',''..,;.. ............;dd;'''';;::ooc:c::cc,              .    .;;;;;,,. 
 .;,.......'.,''.,,:lc;'.'.  ...........''.:ko,,',c:::l:,;;;;cc'             ....  .looooll' 
 .''.'',:;....'..clco:l:.   ..........',,,..okl,,;,,;coc'',,;;;.                    .;;;::c' 
 ''';l:c;;,:o''''lxxxcl:. ............'',,'..lxo;;,;;,;...',.,.                     .lc:;;,. 
 ,,,:c;',,,lc;',;oxxxc'....'............'''...okx;::;;,''','.                      ..c::,.c' 
 ,c;;,',,,'cc;'':oxxx,.....'..................'oxk;;;,,,cc'.                     ....:;,;;:' 
 .;,,;,',;clc:'.;oxd,...'''....'''.............,cox:',,,:;,.                       .'c;..;;. 
 ......';:xxxx:':oo'...'''.....'.'.........  ....  ........               .,.      .:;,..',. 
 ,,'',,;;cxxdlcldl'..',,'.'.  ...'.......... .'..     ..,,.             .:ol.     .',,...';. 
 ,,..,:::;;ccccdl''',,;,';;;,'''',''''''',,,'',,..     ';,.            ..:l'.    .;;,c...',. 
 ';;';,.';;;::;c;,,,;:,':::::;;;,,',,,,,.,;;,,,,,..    .;c. ...      ....:c.    .:;..;;.'.   
 ';;::;.';:c,';;;;;:c;';c::::::;,'''',,'.',;;,,,,'...'. .;,. ...     ....;'    .::'  .'''... 
 .;cc::;;,c,,::::;ccc,,:cc::;::::,,,,,,''',;::::;;'..c:c:',.  ..     ....'.    ..:'  ..'.... 
 .,,','.':;;::::::::;,,;;;::::::c;:cc:;,,;;;ccccc::'.'cclc.         .......     .:c.  ..  .  
 ...'''....',,,;;::;',;;;;;:coddddodccc,,;:;clllllc:.             .'.....,,    ..,l'.......  
 .....''...;cloddoololloolloodooolclc:c;,,;,:::;;;;;,''.. .       ;c;...... 'l.''.''''.....  
 '....',..',:odkOOOkO00OOkxdoc:;''',,'.,,,;;;cllllollcc:,.    .,..;:,';;,',cxkl....'.. .';:  
 ...,''....',codxxxxkkkxxdol:;''..........''',;;;:cccllc;.    .;'.,:,.'lllooddo;:c:......;o. 
