 ;lllllllllllollllllooooooooooooooooooooooooooooooooooooooooolllllllllllccccc::::::::::::;;. 
 cxxxkkkkkkkkkkkkkkkkkkkkkOOOOOOOOOOOOOOOOOOkOOOOOOOOkkkkkkkkkkkkkkkxxxxxddddoooooolllllllc' 
 cddddddddxxxxxxxxxxxxxxkkkkkkkkkkkkkkkkkkkkkkkkkkkkk;..;loodxkkkkkxxxxxddddoooooooolllllll, 
 cdddddddddddddddxxxxxxxxxxkkkkkkkkkkkkkkkkkkkkkkkxl;.........'cdkkkkxxxxxdddddoooooooooooo, 
 cddddddddxxxxxxxxxxxxxxxxkkkkkkkkkkkkkkkkkkkkkkkl'..............,cxkkkxxxxxxdddddddddddddd, 
 cdxxxxxxxxxxxxxxxxxxxxkkkkkkkkkkkOOOkkkkkkkkkkko.....'''...........cxkxxxxxxdddddddddddddd, 
 cxxxxxxxxxxxxxxxxxxxxxxkkkkkkkkkkOOOOOOOkkkkkkkk:''',,'............ .lxxxddddddddddddddddd, 
 cdxxxxxxxxxxxxxxxxxxxxxkkkkkkkkkkOOOOOkkkkkkkkkkkd:,'.............  ..:ddddddooooooooooooo, 
 cdxxxxxxxxxxxxxxxxxxxxxxxxxxxxxkkxlldxkkxxxxxkkkkkkkxl,.  .....       .:ooooolllllllllllll' 
 ;lllllllllllllllllllllllooooooo:;'...coooooooocccc:..   .......        .:ccccccclccc::::::. 
 ,::::::ccccccccccccccllllllllc....  'oclclc;'..  .     ........    .....';:::::::::::::::;. 
 ,::::cccc:c:::::cccclllllllll;........ ....            ................',,,,,,,,,,,,,,;;;;. 
 ,:cc::::;;;;;;;;;;;;::::::::::'..,'..     ...         ....... .   .....,:;''''''''''''''''. 
 ';;:::;;;;;,,,,,,;,;:::;:;;;;:::,''..    .'..         ....        . ....,:'''''.....''''''. 
 .',;:;;;;;,,,'''''''',,,,,,;:ccl;....'lc;.,...                      .....:'...'............ 
 .';';;,,'',,:;','''''',,,;,'''.'.... :c:l;....     ..,:'            ... .;;''','''.'.'''... 
 .'',,:,'..;:c:,;;'..'....','''...... ::,c,..... .':llll:.             ....,'.'''..';;;,,,,. 
 ''''''.',''','...'',,'..,;..............'cdd;''',;:ccodl'             ....;,;,,,;'';;;;;,,. 
 ';,...'..',',',.,,:oc;'.'.  ...........'';oko,;,;lccco:;;.            .....'lccll;;ooooool' 
 .','',;::'.'.''.llloco:..  ..........'',,''dkc;;:;,:ldc,'.               ..';;;:,;:;;;::cc' 
 ''';lcc:;,:d,'''oxxxcl:. .............',,'.,dko;:;::;:''.'.              ...';;c,:oolc:;;;. 
 ,,;cl:,,,;ol:,,;oxxxc'.................'''..'dkx:cc::,,,,,.              ';;;,,''clll:c,'c' 
 ,c;;;',;,'cl:',:okkx,........................'dkk:::,;;ll'..       .  .,lxo'',''.,;':;;;;:' 
 .;,;:;,,:llc:'.:dkx,...''.....'''...............:o;,,;;::..............xkkx'''..';:,l;.';;. 
 ......';cxxxx:,:do,...''......'.'.........  ...    .'.............. .;;dxxd,';'..',;,'..',. 
 ,,'',,;:lxxxlcldl'..',,'.,'. ...''......... .'..    .,';...........'...;clo:..,,''.''...';. 
 ;,..,::c;;clclxl,'',;;,'::;,'''''''''''',,,,,,,..    .;;...  .. .:d:....;cc::::cl;,,:...,;. 
 ':;,;,.,;;;:c:c;,,,::,,::::::;;;,,,,,,,',;;,,,,,..    .:.........:dc....,cc,,cc::,..,;.'.   
 ';;::;.';:c;'::;;;cc;':ccccc::;,'',,,,''',;;;;;;,..';. .'.........co....,cc'.::;;.  .'''... 
 .:lc::;;;l;,:c:::clc;,cccc::::::,,,c;,,',,::c::::'..::''''.........;....,cc;....;'  ..'''.. 
 .,,','.,c;;c:::::cc:,;::::::::cc;:ccc:,,;;;clllccc'.',',.   ............,ccc'.  ;:   ..  .  
 ...','....',,;;:cc:,,::::::cdxxxxdoclc,,;c;clllool:.    .      ..,'.....,ccol   ':...... .  
 .....',..':clodddolollooolodxxdoolllcc;,;;;:::::;;;'',''... .....;:;....,llol.....'''.....  
 '....',.'';coxOOOOO0000Okkxoc:;,',,,'.,,,;;:lloooooollc'.,;,;;;'.;:,.,;,;lldd:. ..'.. .';;  
 ...,''...',;codxkkxkkkxxddl:;,'.........'''';;;::clllllcc,',';:'.,:,.':c:llodl';;;.....';l. 
